
################################################################################
# Gelman-Rubin Diagnostic
################################################################################

Generally the Gelman diagnostic should be < 1.05


Out of 86 variables: 0 > 1.01

                      
0 > 1.05

                      
0 > 1.1


The worst variables are:

              Point est. Upper C.I.
p.global[2]     1.006147   1.023547
p.global[3]     1.005712   1.021880
loglik[54]      1.005394   1.018805
loglik[63]      1.005360   1.019997
loglik[58]      1.005223   1.018592
loglik[70]      1.005128   1.019819
loglik[55]      1.005053   1.017543
resid.prop[2]   1.003854   1.015273
loglik[51]      1.003745   1.012809
loglik[49]      1.003519   1.012138


And here are the Gelman diagnostics for all variables:

              Point est. Upper C.I.
deviance       1.0001103   1.000662
loglik[1]      1.0009815   1.003452
loglik[10]     1.0000334   1.000588
loglik[11]     1.0000924   1.001082
loglik[12]     1.0001685   1.000685
loglik[13]     1.0002717   1.000605
loglik[14]     1.0004241   1.000524
loglik[15]     1.0003786   1.000769
loglik[16]     1.0004566   1.000775
loglik[17]     1.0006523   1.000800
loglik[18]     1.0001066   1.001268
loglik[19]     1.0005313   1.003007
loglik[2]      0.9999460   1.000836
loglik[20]     1.0000562   1.001256
loglik[21]     1.0000569   1.001278
loglik[22]     1.0006424   1.003286
loglik[23]     1.0001557   1.000736
loglik[24]     1.0001443   1.001730
loglik[25]     1.0006265   1.001327
loglik[26]     0.9999106   1.000808
loglik[27]     1.0006241   1.001446
loglik[28]     1.0005501   1.001350
loglik[29]     1.0004259   1.001376
loglik[3]      0.9998411   1.000044
loglik[30]     1.0004107   1.001554
loglik[31]     1.0000852   1.000293
loglik[32]     1.0005224   1.002045
loglik[33]     1.0004180   1.002369
loglik[34]     0.9999725   1.001105
loglik[35]     1.0001566   1.001148
loglik[36]     0.9999294   1.000460
loglik[37]     0.9999362   1.000909
loglik[38]     0.9999472   1.000874
loglik[39]     0.9998665   1.000262
loglik[4]      1.0029356   1.009213
loglik[40]     1.0000623   1.001443
loglik[41]     0.9999234   1.000919
loglik[42]     0.9999787   1.001189
loglik[43]     1.0002939   1.001646
loglik[44]     1.0000056   1.000854
loglik[45]     1.0030392   1.010716
loglik[46]     1.0011233   1.004724
loglik[47]     1.0002713   1.001166
loglik[48]     1.0013956   1.005590
loglik[49]     1.0035193   1.012138
loglik[5]      0.9999482   1.000122
loglik[50]     1.0023877   1.008600
loglik[51]     1.0037446   1.012809
loglik[52]     1.0009618   1.004747
loglik[53]     1.0015997   1.007056
loglik[54]     1.0053944   1.018805
loglik[55]     1.0050530   1.017543
loglik[56]     0.9998674   1.000766
loglik[57]     1.0010180   1.004791
loglik[58]     1.0052229   1.018592
loglik[59]     0.9998378   1.000582
loglik[6]      0.9999554   1.000145
loglik[60]     1.0000021   1.001123
loglik[61]     0.9999220   1.000898
loglik[62]     1.0009826   1.004381
loglik[63]     1.0053600   1.019997
loglik[64]     1.0001103   1.000937
loglik[65]     1.0001517   1.001143
loglik[66]     1.0003863   1.001789
loglik[67]     1.0002845   1.001012
loglik[68]     1.0003534   1.000887
loglik[69]     1.0003436   1.000773
loglik[7]      1.0017538   1.006237
loglik[70]     1.0051279   1.019819
loglik[71]     1.0004808   1.001246
loglik[72]     1.0004088   1.000968
loglik[73]     1.0017172   1.006842
loglik[74]     1.0007667   1.002483
loglik[75]     1.0015270   1.005774
loglik[76]     1.0004822   1.000893
loglik[77]     1.0019231   1.007388
loglik[78]     1.0008193   1.002279
loglik[79]     1.0009888   1.002579
loglik[8]      1.0000116   1.000840
loglik[80]     1.0014270   1.004408
loglik[9]      1.0000953   1.000124
p.global[1]    1.0028847   1.007703
p.global[2]    1.0061468   1.023547
p.global[3]    1.0057118   1.021880
resid.prop[1]  1.0029588   1.010022
resid.prop[2]  1.0038535   1.015273

################################################################################
# Geweke Diagnostic
################################################################################

The Geweke diagnostic is a standard z-score, so we'd expect 5% to be outside +/-1.96
Number of variables outside +/-1.96 in each chain (out of 
86
):


       Chain 1 Chain 2 Chain 3
Geweke       0       0       0


And here are the Geweke diagnostics for all variables:

              chain1 chain2 chain3
deviance       0.047  0.513  1.153
loglik[1]     -0.065  0.143 -0.191
loglik[10]     0.365  0.606 -0.905
loglik[11]     0.262  0.364 -1.037
loglik[12]     0.364  0.545 -1.024
loglik[13]     0.421  0.629 -1.022
loglik[14]     0.542  0.642 -1.016
loglik[15]     0.375  0.502 -1.131
loglik[16]     0.407  0.557 -1.126
loglik[17]     0.531  0.583 -1.120
loglik[18]     0.154 -0.055 -1.200
loglik[19]    -0.034 -0.439 -1.218
loglik[2]      0.254  0.538 -0.564
loglik[20]     0.090 -0.280 -1.270
loglik[21]     0.084 -0.298 -1.270
loglik[22]    -0.095 -0.595 -1.171
loglik[23]     0.219  0.016 -1.232
loglik[24]     0.018 -0.400 -1.261
loglik[25]     0.383  0.326 -1.198
loglik[26]     0.046 -0.418 -1.252
loglik[27]     0.451  0.478 -1.193
loglik[28]     0.351  0.242 -1.181
loglik[29]     0.302  0.111 -1.172
loglik[3]      0.447  0.860 -0.600
loglik[30]     0.291  0.077 -1.130
loglik[31]     0.381  0.647 -1.422
loglik[32]     0.372  0.270 -1.074
loglik[33]    -0.211 -0.910 -1.066
loglik[34]    -0.126 -0.802 -1.106
loglik[35]     0.425  0.476 -1.130
loglik[36]     0.371  0.513 -1.196
loglik[37]     0.367  0.382 -1.030
loglik[38]    -0.207 -0.973 -0.908
loglik[39]     0.314  0.421 -1.161
loglik[4]     -0.238 -0.510 -0.833
loglik[40]     0.357  0.341 -0.959
loglik[41]     0.357  0.349 -0.993
loglik[42]     0.300  0.250 -0.854
loglik[43]    -0.367 -1.171 -0.668
loglik[44]    -0.297 -1.120 -0.613
loglik[45]     0.086 -0.194  0.108
loglik[46]     0.092 -0.079 -0.143
loglik[47]    -0.014 -0.191 -0.650
loglik[48]     0.091 -0.088 -0.087
loglik[49]     0.048 -0.236  0.265
loglik[5]      0.482  0.864 -0.733
loglik[50]     0.013 -0.194  0.254
loglik[51]    -0.017 -0.262  0.511
loglik[52]    -0.268 -0.522 -0.496
loglik[53]    -0.363 -0.626 -0.419
loglik[54]    -0.139 -0.457  1.046
loglik[55]    -0.131 -0.397  1.039
loglik[56]    -0.363 -0.558  0.451
loglik[57]    -0.436 -0.717 -0.118
loglik[58]    -0.178 -0.438  1.240
loglik[59]    -0.415 -0.616  0.343
loglik[6]      0.476  0.848 -0.744
loglik[60]    -0.441 -0.659  0.254
loglik[61]    -0.433 -0.606  0.685
loglik[62]    -0.491 -0.764  0.052
loglik[63]    -0.254 -0.633  1.260
loglik[64]    -0.555 -0.744  0.579
loglik[65]    -0.532 -0.732  1.003
loglik[66]    -0.540 -0.739  1.185
loglik[67]    -0.576 -0.766  1.106
loglik[68]    -0.619 -0.793  0.899
loglik[69]    -0.697 -0.795  1.006
loglik[7]     -0.107 -0.338 -0.954
loglik[70]    -0.288 -0.559  1.582
loglik[71]    -0.632 -0.794  0.832
loglik[72]    -0.643 -0.783  1.175
loglik[73]    -0.385 -0.670  1.707
loglik[74]    -0.563 -0.787  1.443
loglik[75]    -0.506 -0.711  1.710
loglik[76]    -0.678 -0.800  1.187
loglik[77]    -0.381 -0.664  1.815
loglik[78]    -0.580 -0.794  1.489
loglik[79]    -0.582 -0.785  1.596
loglik[8]      0.306  0.516 -0.900
loglik[80]    -0.549 -0.741  1.788
loglik[9]      0.592  1.018 -0.928
p.global[1]   -0.416 -0.277  0.563
p.global[2]    1.005  1.115 -1.143
p.global[3]   -0.971 -1.106  1.086
resid.prop[1] -0.280  0.540 -1.616
resid.prop[2]  0.296  0.413 -1.271
