
################################################################################
# Gelman-Rubin Diagnostic
################################################################################

Generally the Gelman diagnostic should be < 1.05


Out of 87 variables: 0 > 1.01

                      
0 > 1.05

                      
0 > 1.1


The worst variables are:

              Point est. Upper C.I.
resid.prop[2]   1.005847   1.021985
p.global[2]     1.003165   1.011032
loglik[9]       1.003081   1.012415
loglik[14]      1.002588   1.010787
loglik[17]      1.002588   1.010580
loglik[43]      1.002452   1.007633
p.global[4]     1.002140   1.008700
loglik[5]       1.002132   1.008965
loglik[31]      1.002127   1.008942
loglik[6]       1.002077   1.008790


And here are the Gelman diagnostics for all variables:

              Point est. Upper C.I.
deviance       1.0006891   1.002813
loglik[1]      1.0000800   1.001433
loglik[10]     1.0012212   1.005778
loglik[11]     1.0007616   1.003616
loglik[12]     1.0012400   1.005601
loglik[13]     1.0015988   1.007013
loglik[14]     1.0025877   1.010787
loglik[15]     1.0014437   1.005825
loglik[16]     1.0016327   1.006642
loglik[17]     1.0025876   1.010580
loglik[18]     1.0008490   1.002265
loglik[19]     1.0009017   1.002150
loglik[2]      1.0008457   1.004296
loglik[20]     1.0009888   1.001967
loglik[21]     1.0009941   1.001955
loglik[22]     1.0011368   1.002756
loglik[23]     1.0011909   1.002903
loglik[24]     1.0010322   1.001995
loglik[25]     1.0017234   1.005923
loglik[26]     1.0011856   1.001909
loglik[27]     1.0020665   1.007956
loglik[28]     1.0015478   1.005075
loglik[29]     1.0012966   1.003892
loglik[3]      1.0019766   1.008251
loglik[30]     1.0011797   1.003598
loglik[31]     1.0021268   1.008942
loglik[32]     1.0013656   1.005402
loglik[33]     1.0017396   1.004575
loglik[34]     1.0015091   1.003123
loglik[35]     1.0017662   1.007563
loglik[36]     1.0017296   1.007548
loglik[37]     1.0012721   1.005953
loglik[38]     1.0017325   1.004144
loglik[39]     1.0012766   1.005955
loglik[4]      1.0008563   1.003728
loglik[40]     1.0011929   1.005664
loglik[41]     1.0011535   1.005540
loglik[42]     1.0008807   1.004568
loglik[43]     1.0024519   1.007633
loglik[44]     1.0020271   1.005547
loglik[45]     1.0002154   1.001939
loglik[46]     1.0003704   1.002692
loglik[47]     1.0007861   1.003724
loglik[48]     1.0003553   1.002619
loglik[49]     1.0001967   1.001769
loglik[5]      1.0021322   1.008965
loglik[50]     1.0002319   1.002114
loglik[51]     1.0001879   1.001726
loglik[52]     1.0014323   1.005086
loglik[53]     1.0017153   1.005762
loglik[54]     1.0001848   1.000899
loglik[55]     1.0001218   1.001071
loglik[56]     1.0008158   1.003207
loglik[57]     1.0016353   1.005368
loglik[58]     1.0001012   1.000847
loglik[59]     1.0010817   1.003816
loglik[6]      1.0020770   1.008790
loglik[60]     1.0012532   1.004238
loglik[61]     1.0008620   1.003134
loglik[62]     1.0016635   1.005327
loglik[63]     1.0004444   1.000663
loglik[64]     1.0013212   1.004152
loglik[65]     1.0009442   1.003054
loglik[66]     1.0008777   1.002775
loglik[67]     1.0010552   1.003187
loglik[68]     1.0013492   1.003963
loglik[69]     1.0012707   1.003708
loglik[7]      1.0004498   1.002137
loglik[70]     1.0003726   1.000587
loglik[71]     1.0014492   1.004238
loglik[72]     1.0011301   1.003276
loglik[73]     1.0004471   1.001469
loglik[74]     1.0008644   1.002515
loglik[75]     1.0005470   1.001652
loglik[76]     1.0012093   1.003425
loglik[77]     1.0004273   1.001311
loglik[78]     1.0009178   1.002572
loglik[79]     1.0009013   1.002431
loglik[8]      1.0009005   1.004564
loglik[80]     1.0007077   1.001861
loglik[9]      1.0030811   1.012415
p.global[1]    1.0002806   1.000879
p.global[2]    1.0031653   1.011032
p.global[3]    1.0007709   1.003618
p.global[4]    1.0021401   1.008700
resid.prop[1]  0.9998994   1.000798
resid.prop[2]  1.0058471   1.021985

################################################################################
# Geweke Diagnostic
################################################################################

The Geweke diagnostic is a standard z-score, so we'd expect 5% to be outside +/-1.96
Number of variables outside +/-1.96 in each chain (out of 
87
):


       Chain 1 Chain 2 Chain 3
Geweke       8       0       0


And here are the Geweke diagnostics for all variables:

              chain1 chain2 chain3
deviance      -0.137  0.092 -0.235
loglik[1]     -1.740  0.252  0.144
loglik[10]    -1.836 -0.057  0.667
loglik[11]    -1.932 -0.225  0.783
loglik[12]    -1.820 -0.186  0.767
loglik[13]    -1.732 -0.135  0.743
loglik[14]    -1.468  0.063  0.571
loglik[15]    -1.690 -0.323  0.868
loglik[16]    -1.668 -0.287  0.956
loglik[17]    -1.391 -0.078  0.658
loglik[18]    -1.768 -0.455  0.936
loglik[19]    -1.740 -0.579  0.791
loglik[2]     -1.838  0.146  0.440
loglik[20]    -1.667 -0.642  0.955
loglik[21]    -1.663 -0.648  0.954
loglik[22]    -1.636 -0.648  0.765
loglik[23]    -1.575 -0.540  1.028
loglik[24]    -1.648 -0.678  0.910
loglik[25]    -1.102 -0.497  1.005
loglik[26]    -1.461 -0.800  1.023
loglik[27]    -0.735 -0.409  0.757
loglik[28]    -1.068 -0.548  1.055
loglik[29]    -1.014 -0.619  1.120
loglik[3]     -1.565  0.285  0.381
loglik[30]    -0.909 -0.643  1.104
loglik[31]     0.362  0.346 -0.037
loglik[32]    -0.463 -0.584  0.821
loglik[33]    -1.310 -0.863  0.764
loglik[34]    -1.293 -0.932  0.928
loglik[35]     0.075 -0.215  0.441
loglik[36]     0.420  0.002  0.188
loglik[37]     0.716 -0.090  0.163
loglik[38]    -1.068 -0.837  0.915
loglik[39]     0.899  0.158 -0.071
loglik[4]     -1.771 -0.099  0.265
loglik[40]     0.655 -0.187  0.257
loglik[41]     0.856 -0.065  0.107
loglik[42]     1.178 -0.032 -0.015
loglik[43]    -0.933 -1.005  0.691
loglik[44]    -0.849 -0.919  0.899
loglik[45]     1.408 -0.633  0.365
loglik[46]     1.883 -0.062 -0.212
loglik[47]     1.707  0.452 -0.728
loglik[48]     1.872 -0.122 -0.159
loglik[49]     1.557 -0.634  0.320
loglik[5]     -1.575  0.230  0.447
loglik[50]     2.026 -0.178 -0.169
loglik[51]     1.980 -0.409  0.023
loglik[52]     1.596  0.632 -0.950
loglik[53]     1.493  0.681 -0.997
loglik[54]     1.927 -0.792  0.288
loglik[55]     2.122 -0.530  0.045
loglik[56]     1.923  0.420 -0.870
loglik[57]     1.591  0.638 -1.008
loglik[58]     2.164 -0.520 -0.001
loglik[59]     1.857  0.489 -0.934
loglik[6]     -1.595  0.211  0.464
loglik[60]     1.789  0.533 -0.967
loglik[61]     1.918  0.422 -0.901
loglik[62]     1.594  0.630 -1.023
loglik[63]     1.742 -1.126  0.492
loglik[64]     1.769  0.528 -0.999
loglik[65]     1.908  0.491 -0.940
loglik[66]     1.920  0.471 -0.932
loglik[67]     1.853  0.523 -0.972
loglik[68]     1.732  0.600 -1.022
loglik[69]     1.760  0.580 -1.012
loglik[7]     -1.910 -0.224  0.495
loglik[70]     2.541 -0.748  0.132
loglik[71]     1.682  0.626 -1.036
loglik[72]     1.808  0.543 -0.992
loglik[73]     2.008  0.317 -0.815
loglik[74]     1.889  0.467 -0.940
loglik[75]     1.968  0.357 -0.852
loglik[76]     1.762  0.564 -1.009
loglik[77]     1.987  0.307 -0.808
loglik[78]     1.853  0.483 -0.955
loglik[79]     1.831  0.475 -0.955
loglik[8]     -1.909 -0.090  0.671
loglik[80]     1.869  0.414 -0.906
loglik[9]     -1.295  0.376  0.267
p.global[1]    1.601  1.743 -1.803
p.global[2]    0.713 -1.220  0.769
p.global[3]   -0.718 -1.506  0.882
p.global[4]   -1.844  0.501 -0.119
resid.prop[1] -0.488 -0.695 -0.001
resid.prop[2]  0.523 -0.486  0.202
