
################################################################################
# Gelman-Rubin Diagnostic
################################################################################

Generally the Gelman diagnostic should be < 1.05


Out of 64 variables: 0 > 1.01

                      
0 > 1.05

                      
0 > 1.1


The worst variables are:

              Point est. Upper C.I.
p.fac1[1,2]     1.003181   1.003924
ilr.fac1[2,1]   1.002414   1.006009
p.fac1[2,3]     1.001889   1.003154
p.fac1[2,1]     1.001717   1.003607
p.fac1[2,2]     1.001331   1.002439
loglik[12]      1.001239   1.005151
loglik[27]      1.001029   1.005086
p.global[2]     1.000997   1.004643
loglik[13]      1.000899   1.002257
loglik[7]       1.000826   1.001931


And here are the Gelman diagnostics for all variables:

              Point est. Upper C.I.
deviance       0.9998246  1.0006669
fac1.sig       1.0005473  1.0032506
ilr.fac1[1,1]  1.0001269  1.0010593
ilr.fac1[1,2]  1.0008138  1.0017941
ilr.fac1[2,1]  1.0024137  1.0060086
ilr.fac1[2,2]  0.9998787  1.0005905
loglik[1]      1.0005460  1.0019304
loglik[10]     0.9997935  1.0003746
loglik[11]     0.9996275  0.9998051
loglik[12]     1.0012393  1.0051509
loglik[13]     1.0008988  1.0022572
loglik[14]     1.0007623  1.0029728
loglik[15]     1.0002418  1.0008762
loglik[16]     0.9997170  1.0001861
loglik[17]     0.9998184  1.0002861
loglik[18]     0.9998162  1.0002740
loglik[19]     0.9997310  1.0000676
loglik[2]      1.0002239  1.0009992
loglik[20]     1.0001455  1.0006982
loglik[21]     1.0006868  1.0021589
loglik[22]     0.9997573  0.9999196
loglik[23]     1.0007451  1.0023522
loglik[24]     0.9998210  1.0004036
loglik[25]     0.9997945  1.0005767
loglik[26]     0.9997367  1.0000391
loglik[27]     1.0010288  1.0050865
loglik[28]     1.0001135  1.0012936
loglik[29]     1.0003477  1.0003993
loglik[3]      1.0000970  1.0003811
loglik[30]     0.9997368  1.0001269
loglik[31]     0.9995604  0.9996839
loglik[32]     1.0004842  1.0030501
loglik[33]     0.9999657  1.0003893
loglik[34]     1.0000945  1.0008588
loglik[35]     0.9996853  1.0001301
loglik[36]     0.9997282  1.0002880
loglik[37]     0.9997387  1.0003367
loglik[38]     0.9997998  1.0005601
loglik[39]     0.9997714  1.0001732
loglik[4]      1.0001138  1.0009658
loglik[40]     1.0003101  1.0024014
loglik[41]     1.0007219  1.0036213
loglik[42]     1.0006726  1.0021612
loglik[43]     1.0000335  1.0008621
loglik[44]     1.0008097  1.0037000
loglik[45]     0.9997203  1.0002698
loglik[46]     0.9999387  1.0008719
loglik[47]     1.0001803  1.0015473
loglik[5]      1.0000480  1.0011603
loglik[6]      1.0002276  1.0009406
loglik[7]      1.0008256  1.0019310
loglik[8]      1.0002206  1.0016089
loglik[9]      1.0000664  1.0011844
p.fac1[1,1]    1.0004073  1.0020383
p.fac1[1,2]    1.0031814  1.0039244
p.fac1[1,3]    1.0007241  1.0029762
p.fac1[2,1]    1.0017170  1.0036068
p.fac1[2,2]    1.0013308  1.0024389
p.fac1[2,3]    1.0018894  1.0031541
p.global[1]    1.0002811  1.0017681
p.global[2]    1.0009969  1.0046430
p.global[3]    0.9996765  0.9998819
resid.prop[1]  0.9998241  1.0003140
resid.prop[2]  1.0007683  1.0024726

################################################################################
# Geweke Diagnostic
################################################################################

The Geweke diagnostic is a standard z-score, so we'd expect 5% to be outside +/-1.96
Number of variables outside +/-1.96 in each chain (out of 
64
):


       Chain 1 Chain 2 Chain 3
Geweke       4       0       1


And here are the Geweke diagnostics for all variables:

              chain1 chain2 chain3
deviance       0.155  0.020 -0.403
fac1.sig       0.114  0.659 -0.453
ilr.fac1[1,1] -0.243  0.978  0.663
ilr.fac1[1,2] -1.319 -0.786 -0.811
ilr.fac1[2,1]  0.030 -0.312 -0.681
ilr.fac1[2,2]  0.401  0.232 -1.135
loglik[1]      1.315 -0.399 -0.145
loglik[10]     1.567 -1.039 -0.729
loglik[11]     1.214 -1.030 -0.712
loglik[12]    -1.644  0.572 -0.792
loglik[13]    -0.493  0.070 -0.053
loglik[14]    -0.866  0.468  0.291
loglik[15]    -0.409 -0.577 -0.119
loglik[16]     0.073 -0.287 -0.553
loglik[17]    -0.238 -0.651 -0.305
loglik[18]    -0.290 -0.669 -0.236
loglik[19]     0.065 -0.427 -0.511
loglik[2]      1.586 -0.255  0.070
loglik[20]    -0.265 -0.418  0.046
loglik[21]    -0.752  0.381  0.718
loglik[22]     0.002 -0.711 -0.179
loglik[23]    -1.262  0.591  0.695
loglik[24]     0.047  0.464  0.510
loglik[25]     0.251  1.116  0.492
loglik[26]     0.096 -0.122  0.432
loglik[27]    -3.687  0.562 -0.720
loglik[28]     0.403  1.481  0.332
loglik[29]    -0.981  0.477  1.635
loglik[3]      1.211 -0.129  0.070
loglik[30]     0.332  1.597  0.689
loglik[31]     0.266  1.109  0.709
loglik[32]    -2.139  0.807  0.399
loglik[33]    -1.577  0.772  1.145
loglik[34]     0.370  1.839  0.358
loglik[35]     0.096  0.182  0.632
loglik[36]     0.079  0.076  0.631
loglik[37]     0.065  0.083  0.641
loglik[38]     0.051 -0.067  0.630
loglik[39]    -1.447  0.723  1.227
loglik[4]      1.930 -0.480 -0.014
loglik[40]    -0.134 -0.586  0.615
loglik[41]    -0.044 -1.075  0.277
loglik[42]     0.159 -0.819 -0.053
loglik[43]    -0.635  0.332  2.309
loglik[44]    -0.077 -1.064  0.162
loglik[45]    -0.426  0.490  0.419
loglik[46]    -0.525  0.209  0.432
loglik[47]    -0.672 -0.170  0.321
loglik[5]      2.188 -0.815 -0.274
loglik[6]      0.288 -0.693 -1.478
loglik[7]     -0.849  0.029 -0.406
loglik[8]      1.104 -0.146  0.180
loglik[9]      2.004 -1.037 -0.508
p.fac1[1,1]   -0.575  0.000  0.088
p.fac1[1,2]    0.046 -0.905  0.388
p.fac1[1,3]    0.626  0.257 -0.293
p.fac1[2,1]   -0.559 -0.407  0.411
p.fac1[2,2]    0.246  1.371 -0.440
p.fac1[2,3]    0.609 -0.246 -0.334
p.global[1]    0.409 -1.274 -0.075
p.global[2]    0.146  1.471  1.093
p.global[3]   -0.523  0.126 -1.550
resid.prop[1]  0.003 -0.375 -0.313
resid.prop[2]  0.283  0.280 -0.399
