
#################################################################
# Summary Statistics
#################################################################

DIC = 26.21056

                                    Mean    SD  2.5%    5%   25%   50%   75%   95%  97.5%
Epsilon.1                          1.112 0.305 0.619 0.669 0.893 1.081 1.293 1.641  1.789
Epsilon.2                          0.169 0.035 0.113 0.119 0.145 0.165 0.190 0.230  0.247
site.SD                            3.203 2.497 0.826 0.980 1.636 2.447 3.868 8.242 10.147
location.SD                        3.346 2.242 0.971 1.123 1.881 2.756 4.086 7.884  9.786
p.global.Carcinus maenas           0.199 0.164 0.008 0.015 0.068 0.155 0.296 0.524  0.615
p.global.Mysida                    0.313 0.191 0.027 0.045 0.155 0.296 0.444 0.657  0.729
p.global.Orchestia gammarella      0.261 0.176 0.029 0.042 0.118 0.226 0.366 0.610  0.675
p.global.Palaemonetes varians      0.227 0.166 0.013 0.022 0.095 0.192 0.325 0.551  0.626
p.BDM.Carcinus maenas              0.147 0.211 0.000 0.000 0.011 0.056 0.188 0.648  0.808
p.BDS.Carcinus maenas              0.089 0.169 0.000 0.000 0.002 0.016 0.085 0.473  0.640
p.BDM.Mysida                       0.685 0.274 0.054 0.128 0.511 0.763 0.917 0.995  0.999
p.BDS.Mysida                       0.172 0.201 0.000 0.000 0.020 0.091 0.254 0.617  0.735
p.BDM.Orchestia gammarella         0.048 0.101 0.000 0.000 0.002 0.013 0.047 0.214  0.324
p.BDS.Orchestia gammarella         0.525 0.292 0.025 0.064 0.275 0.527 0.783 0.981  0.995
p.BDM.Palaemonetes varians         0.120 0.177 0.000 0.000 0.011 0.050 0.151 0.528  0.676
p.BDS.Palaemonetes varians         0.214 0.241 0.000 0.001 0.033 0.123 0.313 0.770  0.898
p.Chiendent.Carcinus maenas        0.016 0.034 0.000 0.000 0.000 0.002 0.015 0.090  0.121
p.Obione.Carcinus maenas           0.319 0.111 0.068 0.134 0.252 0.323 0.389 0.491  0.525
p.Puccinellie.Carcinus maenas      0.078 0.194 0.000 0.000 0.000 0.002 0.017 0.628  0.656
p.Chiendent.Mysida                 0.096 0.087 0.000 0.001 0.025 0.074 0.147 0.268  0.306
p.Obione.Mysida                    0.490 0.138 0.222 0.266 0.399 0.490 0.580 0.712  0.768
p.Puccinellie.Mysida               0.745 0.268 0.000 0.002 0.773 0.828 0.874 0.952  0.981
p.Chiendent.Orchestia gammarella   0.320 0.052 0.221 0.235 0.286 0.320 0.353 0.407  0.424
p.Obione.Orchestia gammarella      0.057 0.039 0.000 0.000 0.023 0.058 0.087 0.120  0.130
p.Puccinellie.Orchestia gammarella 0.160 0.082 0.005 0.038 0.110 0.150 0.195 0.337  0.362
p.Chiendent.Palaemonetes varians   0.568 0.109 0.338 0.376 0.492 0.577 0.650 0.729  0.753
p.Obione.Palaemonetes varians      0.135 0.101 0.000 0.000 0.043 0.130 0.209 0.312  0.348
p.Puccinellie.Palaemonetes varians 0.017 0.026 0.000 0.000 0.001 0.006 0.022 0.069  0.093
