
#################################################################
# Summary Statistics
#################################################################

DIC = 93.70394

                            Mean    SD  2.5%    5%   25%   50%   75%    95%  97.5%
Epsilon.1                  7.850 2.192 3.751 4.377 6.348 7.732 9.269 11.638 12.524
Epsilon.2                  0.584 0.148 0.317 0.352 0.482 0.578 0.679  0.835  0.883
p.global.MicroPhytoBenthos 0.196 0.081 0.035 0.061 0.140 0.196 0.248  0.334  0.358
p.global.POM               0.594 0.056 0.491 0.507 0.555 0.592 0.630  0.689  0.709
p.global.Terr_veg          0.211 0.056 0.101 0.119 0.174 0.211 0.248  0.304  0.320
