
#################################################################
# Summary Statistics
#################################################################

DIC = 287.9136

                               Mean    SD  2.5%    5%   25%   50%    75%    95%  97.5%
Epsilon.1                     9.736 3.030 4.458 5.278 7.591 9.491 11.434 15.311 16.817
Epsilon.2                     0.700 0.152 0.458 0.487 0.592 0.679  0.792  0.982  1.052
p.global.Carcinus maenas      0.203 0.065 0.069 0.094 0.160 0.203  0.246  0.310  0.326
p.global.Mysida               0.065 0.062 0.001 0.003 0.020 0.046  0.092  0.184  0.223
p.global.Orchestia gammarella 0.058 0.052 0.001 0.003 0.017 0.043  0.083  0.164  0.192
p.global.Palaemonetes varians 0.675 0.072 0.525 0.547 0.630 0.679  0.724  0.786  0.806
