
#################################################################
# Summary Statistics
#################################################################

DIC = 294.6825

                       Mean    SD  2.5%    5%   25%   50%   75%   95% 97.5%
Epsilon.1             2.201 0.591 1.221 1.346 1.779 2.148 2.557 3.262 3.505
Epsilon.2             0.372 0.106 0.221 0.232 0.296 0.353 0.429 0.571 0.622
p.global.Intermediate 0.015 0.016 0.000 0.001 0.004 0.010 0.021 0.048 0.057
p.global.Marine       0.133 0.082 0.005 0.011 0.067 0.130 0.188 0.276 0.302
p.global.Terrestrial  0.851 0.080 0.686 0.712 0.799 0.857 0.914 0.969 0.980
