sample_code,site,location,sample_type,length,nb_ind,species,d13C,d15N,decarb
BM-CH-ObF-3,Baie du Mt St Michel,Chiendent,Obione feuille,,3,Atriplex portulacoides,-28.059,9.491,
BM-CH-ObF-2,Baie du Mt St Michel,Chiendent,Obione feuille,,2,Atriplex portulacoides,-27.232,9.829,
BM-CH-ObF-1,Baie du Mt St Michel,Chiendent,Obione feuille,,1,Atriplex portulacoides,-26.993,9.636,
BM-OB-ObF-1,Baie du Mt St Michel,Obione,Obione feuille,,1,Atriplex portulacoides,-25.687,8.205,
BM-OB-ObF-3,Baie du Mt St Michel,Obione,Obione feuille,,3,Atriplex portulacoides,-25.472,8.116,
BM-OB-ObF-2,Baie du Mt St Michel,Obione,Obione feuille,,2,Atriplex portulacoides,-24.739,8.635,
BM-PUC-ObF-3bis,Baie du Mt St Michel,Puccinellie,Obione feuille,,3B,Atriplex portulacoides,-23.999,8.862,
BM-PUC-ObF-3,Baie du Mt St Michel,Puccinellie,Obione feuille,,3,Atriplex portulacoides,-23.923,8.787,
BM-PUC-ObF-1,Baie du Mt St Michel,Puccinellie,Obione feuille,,1,Atriplex portulacoides,-23.883,8.493,
BM-PUC-ObF-2,Baie du Mt St Michel,Puccinellie,Obione feuille,,2,Atriplex portulacoides,-22.752,8.722,
BS-CH-Crab-4,Baie de Seine,Chiendent,Crabe,,4,Carcinus maenas ,-16.618,12.413,no
BS-PHR-Crab-4,Baie de Seine,Phragmite,Crabe,,4,Carcinus maenas ,-16.563,11.177,no
BS-PUC-Crab-4,Baie de Seine,Puccinellie,Crabe,,4,Carcinus maenas ,-16.56,11.939,no
BS-PUC-Crab-4bis,Baie de Seine,Puccinellie,Crabe,,4B,Carcinus maenas ,-15.837,11.528,no
BM-OB-Crab-4,Baie du Mt St Michel,Obione,Crabe,,4,Carcinus maenas ,-15.516,10.876,no
BM-CH-Crab-4,Baie du Mt St Michel,Chiendent,Crabe,,4,Carcinus maenas ,-14.546,9.853,no
BM-PUC-Crab-4,Baie du Mt St Michel,Puccinellie,Crabe,,4,Carcinus maenas ,-14.078,9.981,no
BS-PHR-Crab-DC-3,Baie de Seine,Phragmite,Crabe DC,,3,Carcinus maenas ,-18.922,12.109,yes
BS-PHR-Crab-DC-2,Baie de Seine,Phragmite,Crabe DC,,2,Carcinus maenas ,-18.292,11.763,yes
BS-PHR-Crab-DC-1,Baie de Seine,Phragmite,Crabe DC,,1,Carcinus maenas ,-17.952,11.428,yes
BM-OB-Crab-DC-1,Baie du Mt St Michel,Obione,Crabe DC,,1,Carcinus maenas ,-17.641,11.101,yes
BS-CH-Crab-DC-1,Baie de Seine,Chiendent,Crabe DC,,1,Carcinus maenas ,-17.424,13.449,yes
BS-CH-Crab-DC-3,Baie de Seine,Chiendent,Crabe DC,,3,Carcinus maenas ,-17.312,11.563,yes
BM-OB-Crab-DC-3,Baie du Mt St Michel,Obione,Crabe DC,,3,Carcinus maenas ,-17.249,10.657,yes
BS-PUC-Crab-DC-3,Baie de Seine,Puccinellie,Crabe DC,,3,Carcinus maenas ,-17.086,11.748,yes
BS-CH-Crab-DC-2,Baie de Seine,Chiendent,Crabe DC,,2,Carcinus maenas ,-16.991,12.076,yes
BS-PUC-Crab-DC-2,Baie de Seine,Puccinellie,Crabe DC,,2,Carcinus maenas ,-16.466,12.148,yes
BM-OB-Crab-DC-2,Baie du Mt St Michel,Obione,Crabe DC,,2,Carcinus maenas ,-16.447,9.739,yes
BS-PUC-Crab-DC-1,Baie de Seine,Puccinellie,Crabe DC,,1,Carcinus maenas ,-16.405,11.612,yes
BM-CH-Crab-DC-2,Baie du Mt St Michel,Chiendent,Crabe DC,,2,Carcinus maenas ,-16.113,9.8,yes
BM-PUC-Crab-DC-1,Baie du Mt St Michel,Puccinellie,Crabe DC,,1,Carcinus maenas ,-15.787,10.49,yes
BM-CH-Crab-DC-1,Baie du Mt St Michel,Chiendent,Crabe DC,,1,Carcinus maenas ,-15.457,10.297,yes
BM-CH-Crab-DC-3,Baie du Mt St Michel,Chiendent,Crabe DC,,3,Carcinus maenas ,-15.125,9.368,yes
BM-PUC-Crab-DC-2,Baie du Mt St Michel,Puccinellie,Crabe DC,,2,Carcinus maenas ,-14.96,9.907,yes
BM-PUC-Crab-DC-3,Baie du Mt St Michel,Puccinellie,Crabe DC,,3,Carcinus maenas ,-14.836,8.8,yes
BS-PUC-CrabGros-DC-1,Baie de Seine,Puccinellie,Crabe gros DC,,1,Carcinus maenas ,-20.952,12.159,yes
BM-CH-CrabGros-DC-1,Baie du Mt St Michel,Chiendent,Crabe gros DC,,1,Carcinus maenas ,-18.417,10.551,yes
BS-PHR-Phy-1,Baie de Seine,Phragmite,Phytophage,,1,Chortipus albomarginatus ,-26.95,8.117,
BS-PHR-Phy-2,Baie de Seine,Phragmite,Phytophage,,2,Chortipus albomarginatus ,-25.509,8.851,
BM-CH-Phy-1,Baie du Mt St Michel,Chiendent,Phytophage,,1,Chortipus albomarginatus ,-25.318,6.231,
BM-CH-Phy-3,Baie du Mt St Michel,Chiendent,Phytophage,,3,Chortipus albomarginatus ,-24.689,7.175,
BS-PHR-Phy-3,Baie de Seine,Phragmite,Phytophage,,3,Chortipus albomarginatus ,-24.566,10.711,
BM-CH-Phy-3bis,Baie du Mt St Michel,Chiendent,Phytophage,,3B,Chortipus albomarginatus ,-24.454,7.86,
BM-CH-Phy-2,Baie du Mt St Michel,Chiendent,Phytophage,,2,Chortipus albomarginatus ,-24.182,8.136,
BS-CH-Phy-2,Baie de Seine,Chiendent,Phytophage,,2,Chortipus albomarginatus ,-23.798,8.705,
BS-CH-Phy-3,Baie de Seine,Chiendent,Phytophage,,3,Chortipus albomarginatus ,-23.448,9.835,
BS-CH-Phy-1,Baie de Seine,Chiendent,Phytophage,,1,Chortipus albomarginatus ,-23.367,9.72,
BS-CH-Cor-4,Baie de Seine,Chiendent,Corophium,,4,Corophium volutator ,-18.74,9.863,no
BS-PHR-Cor-4,Baie de Seine,Phragmite,Corophium,,4,Corophium volutator ,-18.74,9.863,no
BS-PUC-Cor-4,Baie de Seine,Puccinellie,Corophium,,4,Corophium volutator ,-17.826,9.356,no
BS-CH-Cor-DC-1,Baie de Seine,Chiendent,Corophium DC,,1,Corophium volutator ,-21.433,10.486,yes
BS-PHR-Cor-DC-1,Baie de Seine,Phragmite,Corophium DC,,1,Corophium volutator ,-21.433,10.486,yes
BS-CH-Cor-DC-3,Baie de Seine,Chiendent,Corophium DC,,3,Corophium volutator ,-20.925,9.004,yes
BS-PHR-Cor-DC-3,Baie de Seine,Phragmite,Corophium DC,,3,Corophium volutator ,-20.925,9.004,yes
BS-PUC-Cor-DC-2,Baie de Seine,Puccinellie,Corophium DC,,2,Corophium volutator ,-20.547,8.233,yes
BS-PUC-Cor-DC-3,Baie de Seine,Puccinellie,Corophium DC,,3,Corophium volutator ,-20.394,9.258,yes
BS-PUC-Cor-DC-1,Baie de Seine,Puccinellie,Corophium DC,,1,Corophium volutator ,-20.362,8.802,yes
BS-CH-Cor-DC-2,Baie de Seine,Chiendent,Corophium DC,,2,Corophium volutator ,-19.616,9.582,yes
BS-PHR-Cor-DC-2,Baie de Seine,Phragmite,Corophium DC,,2,Corophium volutator ,-19.616,9.582,yes
BS-PUC-Bar>50F-2,Baie de Seine,Puccinellie,Bar foie,>50,2,Dicentrarchus labrax ,-22.863,13.476,
BS-CH-Bar>50F-8,Baie de Seine,Chiendent,Bar foie,>50,8,Dicentrarchus labrax ,-22.411,14.433,
BS-PHR-Bar>50F-8,Baie de Seine,Phragmite,Bar foie,>50,8,Dicentrarchus labrax ,-22.411,14.433,
BS-PUC-Bar>50F-1,Baie de Seine,Puccinellie,Bar foie,>50,1,Dicentrarchus labrax ,-22.308,14.108,
BS-PUC-Bar>50F-8,Baie de Seine,Puccinellie,Bar foie,>50,8,Dicentrarchus labrax ,-21.318,13.716,
BS-CH-Bar>50F-6,Baie de Seine,Chiendent,Bar foie,>50,6,Dicentrarchus labrax ,-21.304,13.749,
BS-PHR-Bar>50F-6,Baie de Seine,Phragmite,Bar foie,>50,6,Dicentrarchus labrax ,-21.304,13.749,
BS-CH-Bar>50F-1,Baie de Seine,Chiendent,Bar foie,>50,1,Dicentrarchus labrax ,-21.289,14.474,
BS-PHR-Bar>50F-1,Baie de Seine,Phragmite,Bar foie,>50,1,Dicentrarchus labrax ,-21.289,14.474,
BS-PUC-Bar>100F-3,Baie de Seine,Puccinellie,Bar foie,>100,3,Dicentrarchus labrax ,-21.267,13.575,
BS-PUC-Bar>50F-3,Baie de Seine,Puccinellie,Bar foie,>50,3,Dicentrarchus labrax ,-21.182,13.332,
BS-PUC-Bar>100F-1bis,Baie de Seine,Puccinellie,Bar foie,>100,1B,Dicentrarchus labrax ,-21.052,13.794,
BS-CH-Bar>50F-7,Baie de Seine,Chiendent,Bar foie,>50,7,Dicentrarchus labrax ,-21.021,12.844,
BS-PHR-Bar>50F-7,Baie de Seine,Phragmite,Bar foie,>50,7,Dicentrarchus labrax ,-21.021,12.844,
BS-PUC-Bar>100F-1,Baie de Seine,Puccinellie,Bar foie,>100,1,Dicentrarchus labrax ,-20.979,13.783,
BM-CH-Bar>50F-1,Baie du Mt St Michel,Chiendent,Bar foie,>50,1,Dicentrarchus labrax ,-20.442,11.954,
BS-PUC-Bar>100F-4,Baie de Seine,Puccinellie,Bar foie,>100,4,Dicentrarchus labrax ,-20.341,14.015,
BS-PUC-Bar>50F-5,Baie de Seine,Puccinellie,Bar foie,>50,5,Dicentrarchus labrax ,-20.327,13.585,
BS-PUC-Bar>50F-6,Baie de Seine,Puccinellie,Bar foie,>50,6,Dicentrarchus labrax ,-20.156,13.679,
BS-PUC-Bar>50F-4,Baie de Seine,Puccinellie,Bar foie,>50,4,Dicentrarchus labrax ,-20.145,13.486,
BS-PUC-Bar>100F-2,Baie de Seine,Puccinellie,Bar foie,>100,2,Dicentrarchus labrax ,-19.696,13.873,
BM-CH-Bar>50F-9,Baie du Mt St Michel,Chiendent,Bar foie,>50,9,Dicentrarchus labrax ,-19.44,12.301,
BS-CH-Bar>50F-2,Baie de Seine,Chiendent,Bar foie,>50,2,Dicentrarchus labrax ,-19.362,14.134,
BS-PHR-Bar>50F-2,Baie de Seine,Phragmite,Bar foie,>50,2,Dicentrarchus labrax ,-19.362,14.134,
BS-PUC-Bar>50F-7,Baie de Seine,Puccinellie,Bar foie,>50,7,Dicentrarchus labrax ,-18.553,14.493,
BM-CH-Bar>50F-6,Baie du Mt St Michel,Chiendent,Bar foie,>50,6,Dicentrarchus labrax ,-18.46,13.113,
BM-OB-Bar>50F-1,Baie du Mt St Michel,Obione,Bar foie,>50,1,Dicentrarchus labrax ,-17.996,13.444,
BS-CH-Bar>50F-DL-9,Baie de Seine,Chiendent,Bar foie DL,>50,9,Dicentrarchus labrax ,-23.867,14.873,
BS-PHR-Bar>50F-DL-9,Baie de Seine,Phragmite,Bar foie DL,>50,9,Dicentrarchus labrax ,-23.867,14.873,
BS-PUC-Bar>50F-DL-10,Baie de Seine,Puccinellie,Bar foie DL,>50,10,Dicentrarchus labrax ,-20.021,13.94,
BS-PUC-Bar>100F-DL-5,Baie de Seine,Puccinellie,Bar foie DL,>100,5,Dicentrarchus labrax ,-19.406,13.706,
BS-CH-Bar>50F-DL-10,Baie de Seine,Chiendent,Bar foie DL,>50,10,Dicentrarchus labrax ,-18.877,13.952,
BS-PHR-Bar>50F-DL-10,Baie de Seine,Phragmite,Bar foie DL,>50,10,Dicentrarchus labrax ,-18.877,13.952,
BS-PUC-Bar>50F-DL-9,Baie de Seine,Puccinellie,Bar foie DL,>50,9,Dicentrarchus labrax ,-18.86,13.445,
BS-CH-Bar>50M-9,Baie de Seine,Chiendent,Bar muscle,>50,9,Dicentrarchus labrax ,-21.944,15.968,
BS-PHR-Bar>50M-9,Baie de Seine,Phragmite,Bar muscle,>50,9,Dicentrarchus labrax ,-21.944,15.968,
BS-CH-Bar>50M-9bis,Baie de Seine,Chiendent,Bar muscle,>50,9B,Dicentrarchus labrax ,-21.489,15.645,
BS-PHR-Bar>50M-9bis,Baie de Seine,Phragmite,Bar muscle,>50,9B,Dicentrarchus labrax ,-21.489,15.645,
BS-PUC-Bar>50M-10,Baie de Seine,Puccinellie,Bar muscle,>50,10,Dicentrarchus labrax ,-20.502,15.125,
BS-CH-Bar<50M-10,Baie de Seine,Chiendent,Bar muscle,<50,10,Dicentrarchus labrax ,-20.327,14.679,
BS-PHR-Bar<50M-10,Baie de Seine,Phragmite,Bar muscle,<50,10,Dicentrarchus labrax ,-20.327,14.679,
BS-CH-Bar>50M-8,Baie de Seine,Chiendent,Bar muscle,>50,8,Dicentrarchus labrax ,-20.171,16.283,
BS-PHR-Bar>50M-8,Baie de Seine,Phragmite,Bar muscle,>50,8,Dicentrarchus labrax ,-20.171,16.283,
BS-PUC-Bar>50M-2,Baie de Seine,Puccinellie,Bar muscle,>50,2,Dicentrarchus labrax ,-20.087,14.659,
BS-CH-Bar>50M-4,Baie de Seine,Chiendent,Bar muscle,>50,4,Dicentrarchus labrax ,-20.068,14.682,
BS-PHR-Bar>50M-4,Baie de Seine,Phragmite,Bar muscle,>50,4,Dicentrarchus labrax ,-20.068,14.682,
BS-CH-Bar>50M-1,Baie de Seine,Chiendent,Bar muscle,>50,1,Dicentrarchus labrax ,-19.829,15.787,
BS-CH-Bar>50M-7,Baie de Seine,Chiendent,Bar muscle,>50,7,Dicentrarchus labrax ,-19.829,15.059,
BS-PHR-Bar>50M-1,Baie de Seine,Phragmite,Bar muscle,>50,1,Dicentrarchus labrax ,-19.829,15.787,
BS-PHR-Bar>50M-7,Baie de Seine,Phragmite,Bar muscle,>50,7,Dicentrarchus labrax ,-19.829,15.059,
BS-CH-Bar<50M-1,Baie de Seine,Chiendent,Bar muscle,<50,1,Dicentrarchus labrax ,-19.797,14.324,
BS-PHR-Bar<50M-1,Baie de Seine,Phragmite,Bar muscle,<50,1,Dicentrarchus labrax ,-19.797,14.324,
BS-CH-Bar<50M-4,Baie de Seine,Chiendent,Bar muscle,<50,4,Dicentrarchus labrax ,-19.792,14.957,
BS-PHR-Bar<50M-4,Baie de Seine,Phragmite,Bar muscle,<50,4,Dicentrarchus labrax ,-19.792,14.957,
BS-CH-Bar<50M-5,Baie de Seine,Chiendent,Bar muscle,<50,5,Dicentrarchus labrax ,-19.562,15.113,
BS-PHR-Bar<50M-5,Baie de Seine,Phragmite,Bar muscle,<50,5,Dicentrarchus labrax ,-19.562,15.113,
BS-CH-Bar<50M-3,Baie de Seine,Chiendent,Bar muscle,<50,3,Dicentrarchus labrax ,-19.549,14.952,
BS-PHR-Bar<50M-3,Baie de Seine,Phragmite,Bar muscle,<50,3,Dicentrarchus labrax ,-19.549,14.952,
BS-CH-Bar<50M-9,Baie de Seine,Chiendent,Bar muscle,<50,9,Dicentrarchus labrax ,-19.53,14.851,
BS-PHR-Bar<50M-9,Baie de Seine,Phragmite,Bar muscle,<50,9,Dicentrarchus labrax ,-19.53,14.851,
BS-CH-Bar>50M-6,Baie de Seine,Chiendent,Bar muscle,>50,6,Dicentrarchus labrax ,-19.518,14.575,
BS-PHR-Bar>50M-6,Baie de Seine,Phragmite,Bar muscle,>50,6,Dicentrarchus labrax ,-19.518,14.575,
BS-CH-Bar<50M-2,Baie de Seine,Chiendent,Bar muscle,<50,2,Dicentrarchus labrax ,-19.273,14.903,
BS-PHR-Bar<50M-2,Baie de Seine,Phragmite,Bar muscle,<50,2,Dicentrarchus labrax ,-19.273,14.903,
BS-PUC-Bar>50M-1,Baie de Seine,Puccinellie,Bar muscle,>50,1,Dicentrarchus labrax ,-19.27,14.848,
BS-PUC-Bar>50M-3,Baie de Seine,Puccinellie,Bar muscle,>50,3,Dicentrarchus labrax ,-19.256,14.58,
BS-CH-Bar<50M-6,Baie de Seine,Chiendent,Bar muscle,<50,6,Dicentrarchus labrax ,-19.091,15.202,
BS-PHR-Bar<50M-6,Baie de Seine,Phragmite,Bar muscle,<50,6,Dicentrarchus labrax ,-19.091,15.202,
BS-CH-Bar>50M-3,Baie de Seine,Chiendent,Bar muscle,>50,3,Dicentrarchus labrax ,-19.004,15.475,
BS-PHR-Bar>50M-3,Baie de Seine,Phragmite,Bar muscle,>50,3,Dicentrarchus labrax ,-19.004,15.475,
BS-CH-Bar>50M-10,Baie de Seine,Chiendent,Bar muscle,>50,10,Dicentrarchus labrax ,-18.865,15.249,
BS-PHR-Bar>50M-10,Baie de Seine,Phragmite,Bar muscle,>50,10,Dicentrarchus labrax ,-18.865,15.249,
BS-CH-Bar>50M-5,Baie de Seine,Chiendent,Bar muscle,>50,5,Dicentrarchus labrax ,-18.855,15.256,
BS-PHR-Bar>50M-5,Baie de Seine,Phragmite,Bar muscle,>50,5,Dicentrarchus labrax ,-18.855,15.256,
BS-CH-Bar<50M-7,Baie de Seine,Chiendent,Bar muscle,<50,7,Dicentrarchus labrax ,-18.816,15.545,
BS-PHR-Bar<50M-7,Baie de Seine,Phragmite,Bar muscle,<50,7,Dicentrarchus labrax ,-18.816,15.545,
BS-CH-Bar<50M-8,Baie de Seine,Chiendent,Bar muscle,<50,8,Dicentrarchus labrax ,-18.811,15.05,
BS-PHR-Bar<50M-8,Baie de Seine,Phragmite,Bar muscle,<50,8,Dicentrarchus labrax ,-18.811,15.05,
BS-CH-Bar>50M-2,Baie de Seine,Chiendent,Bar muscle,>50,2,Dicentrarchus labrax ,-18.805,15.346,
BS-PHR-Bar>50M-2,Baie de Seine,Phragmite,Bar muscle,>50,2,Dicentrarchus labrax ,-18.805,15.346,
BS-PUC-Bar>50M-4,Baie de Seine,Puccinellie,Bar muscle,>50,4,Dicentrarchus labrax ,-18.564,14.704,
BS-PUC-Bar>100M-3,Baie de Seine,Puccinellie,Bar muscle,>100,3,Dicentrarchus labrax ,-18.518,15.235,
BS-PUC-Bar>50M-9,Baie de Seine,Puccinellie,Bar muscle,>50,9,Dicentrarchus labrax ,-18.483,14.495,
BS-PUC-Bar>50M-6,Baie de Seine,Puccinellie,Bar muscle,>50,6,Dicentrarchus labrax ,-18.477,14.734,
BS-PUC-Bar>50M-5,Baie de Seine,Puccinellie,Bar muscle,>50,5,Dicentrarchus labrax ,-18.345,14.779,
BS-PUC-Bar>50M-8,Baie de Seine,Puccinellie,Bar muscle,>50,8,Dicentrarchus labrax ,-18.247,14.761,
BS-PUC-Bar<50M-8,Baie de Seine,Puccinellie,Bar muscle,<50,8,Dicentrarchus labrax ,-18.191,13.81,
BS-PUC-Bar<50M-3,Baie de Seine,Puccinellie,Bar muscle,<50,3,Dicentrarchus labrax ,-18.144,14.525,
BS-PUC-Bar>50M-7,Baie de Seine,Puccinellie,Bar muscle,>50,7,Dicentrarchus labrax ,-18.114,15.597,
BS-PUC-Bar>100M-1,Baie de Seine,Puccinellie,Bar muscle,>100,1,Dicentrarchus labrax ,-18.095,15.407,
BS-PUC-Bar<50M-2,Baie de Seine,Puccinellie,Bar muscle,<50,2,Dicentrarchus labrax ,-18.06,14.166,
BS-PUC-Bar<50M-5,Baie de Seine,Puccinellie,Bar muscle,<50,5,Dicentrarchus labrax ,-17.967,13.971,
BS-PUC-Bar<50M-9bis,Baie de Seine,Puccinellie,Bar muscle,<50,9B,Dicentrarchus labrax ,-17.892,13.747,
BS-PUC-Bar<50M-4,Baie de Seine,Puccinellie,Bar muscle,<50,4,Dicentrarchus labrax ,-17.689,13.961,
BS-PUC-Bar>100M-5,Baie de Seine,Puccinellie,Bar muscle,>100,5,Dicentrarchus labrax ,-17.688,15.432,
BS-PUC-Bar<50M-9,Baie de Seine,Puccinellie,Bar muscle,<50,9,Dicentrarchus labrax ,-17.683,13.795,
BS-PUC-Bar<50M-1,Baie de Seine,Puccinellie,Bar muscle,<50,1,Dicentrarchus labrax ,-17.661,14.033,
BS-PUC-Bar<50M-6,Baie de Seine,Puccinellie,Bar muscle,<50,6,Dicentrarchus labrax ,-17.594,13.922,
BS-PUC-Bar<50M-7,Baie de Seine,Puccinellie,Bar muscle,<50,7,Dicentrarchus labrax ,-17.341,13.849,
BS-PUC-Bar>100M-4,Baie de Seine,Puccinellie,Bar muscle,>100,4,Dicentrarchus labrax ,-17.265,15.685,
BS-PUC-Bar>100M-2,Baie de Seine,Puccinellie,Bar muscle,>100,2,Dicentrarchus labrax ,-17.246,15.451,
BM-CH-Bar>50M-5,Baie du Mt St Michel,Chiendent,Bar muscle,>50,5,Dicentrarchus labrax ,-16.675,14.189,
BM-CH-Bar>50M-7,Baie du Mt St Michel,Chiendent,Bar muscle,>50,7,Dicentrarchus labrax ,-16.615,13.764,
BM-OB-Bar<50M-2,Baie du Mt St Michel,Obione,Bar muscle,<50,2,Dicentrarchus labrax ,-16.607,13.353,
BM-CH-Bar>50M-2,Baie du Mt St Michel,Chiendent,Bar muscle,>50,2,Dicentrarchus labrax ,-16.605,13.803,
BS-PUC-Bar<50M-10,Baie de Seine,Puccinellie,Bar muscle,<50,10,Dicentrarchus labrax ,-16.545,14.167,
BM-CH-Bar>50M-1,Baie du Mt St Michel,Chiendent,Bar muscle,>50,1,Dicentrarchus labrax ,-16.385,13.82,
BM-CH-Bar>50M-8,Baie du Mt St Michel,Chiendent,Bar muscle,>50,8,Dicentrarchus labrax ,-16.295,13.97,
BM-OB-Bar<50M-7,Baie du Mt St Michel,Obione,Bar muscle,<50,7,Dicentrarchus labrax ,-16.212,13.07,
BM-OB-Bar<50M-20,Baie du Mt St Michel,Obione,Bar muscle,<50,20,Dicentrarchus labrax ,-16.029,12.94,
BM-CH-Bar>50M-6,Baie du Mt St Michel,Chiendent,Bar muscle,>50,6,Dicentrarchus labrax ,-15.991,14.217,
BM-CH-Bar>50M-3,Baie du Mt St Michel,Chiendent,Bar muscle,>50,3,Dicentrarchus labrax ,-15.97,14.032,
BM-OB-Bar<50M-8,Baie du Mt St Michel,Obione,Bar muscle,<50,8,Dicentrarchus labrax ,-15.857,13.3,
BM-OB-Bar<50M-19,Baie du Mt St Michel,Obione,Bar muscle,<50,19,Dicentrarchus labrax ,-15.843,12.989,
BM-CH-Bar>50M-2,Baie du Mt St Michel,Chiendent,Bar muscle,>50,2,Dicentrarchus labrax ,-15.818,14.022,
BM-OB-Bar<50M-1,Baie du Mt St Michel,Obione,Bar muscle,<50,1,Dicentrarchus labrax ,-15.813,13.209,
BM-OB-Bar<50M-5,Baie du Mt St Michel,Obione,Bar muscle,<50,5,Dicentrarchus labrax ,-15.791,13.148,
BM-OB-Bar<50M-4,Baie du Mt St Michel,Obione,Bar muscle,<50,4,Dicentrarchus labrax ,-15.713,13.28,
BM-OB-Bar<50M-16,Baie du Mt St Michel,Obione,Bar muscle,<50,16,Dicentrarchus labrax ,-15.709,12.974,
BM-OB-Bar>50M-1,Baie du Mt St Michel,Obione,Bar muscle,>50,1,Dicentrarchus labrax ,-15.682,14.443,
BM-OB-Bar<50M-15,Baie du Mt St Michel,Obione,Bar muscle,<50,15,Dicentrarchus labrax ,-15.566,13.115,
BM-OB-Bar<50M-9,Baie du Mt St Michel,Obione,Bar muscle,<50,9,Dicentrarchus labrax ,-15.509,13.245,
BM-OB-Bar<50M-6,Baie du Mt St Michel,Obione,Bar muscle,<50,6,Dicentrarchus labrax ,-15.436,13.264,
BM-OB-Bar<50M-12,Baie du Mt St Michel,Obione,Bar muscle,<50,12,Dicentrarchus labrax ,-15.394,13.2,
BM-OB-Bar<50M-10,Baie du Mt St Michel,Obione,Bar muscle,<50,10,Dicentrarchus labrax ,-15.342,13.085,
BM-OB-Bar<50M-14,Baie du Mt St Michel,Obione,Bar muscle,<50,14,Dicentrarchus labrax ,-15.324,13.114,
BM-CH-Bar>50M-4,Baie du Mt St Michel,Chiendent,Bar muscle,>50,4,Dicentrarchus labrax ,-15.321,14.232,
BM-OB-Bar<50M-18,Baie du Mt St Michel,Obione,Bar muscle,<50,18,Dicentrarchus labrax ,-15.311,13.039,
BM-CH-Bar<50M-1,Baie du Mt St Michel,Chiendent,Bar muscle,<50,1,Dicentrarchus labrax ,-15.303,13.165,
BM-OB-Bar<50M-3,Baie du Mt St Michel,Obione,Bar muscle,<50,3,Dicentrarchus labrax ,-15.291,13.416,
BM-CH-Bar<50M-3,Baie du Mt St Michel,Chiendent,Bar muscle,<50,3,Dicentrarchus labrax ,-15.279,13.259,
BM-CH-Bar<50M-5,Baie du Mt St Michel,Chiendent,Bar muscle,<50,5,Dicentrarchus labrax ,-15.247,13.375,
BM-CH-Bar<50M-2,Baie du Mt St Michel,Chiendent,Bar muscle,<50,2,Dicentrarchus labrax ,-15.236,13.127,
BM-CH-Bar<50M-4,Baie du Mt St Michel,Chiendent,Bar muscle,<50,4,Dicentrarchus labrax ,-15.217,13.424,
BM-OB-Bar<50M-11,Baie du Mt St Michel,Obione,Bar muscle,<50,11,Dicentrarchus labrax ,-15.213,13.234,
BM-OB-Bar<50M-17,Baie du Mt St Michel,Obione,Bar muscle,<50,17,Dicentrarchus labrax ,-15.135,13.232,
BM-OB-Bar<50M-13,Baie du Mt St Michel,Obione,Bar muscle,<50,13,Dicentrarchus labrax ,-15.094,13.303,
BM-PUC-Bar>50M-1,Baie du Mt St Michel,Puccinellie,Bar muscle,>50,1,Dicentrarchus labrax ,-14.998,13.245,
BS-CH-ChF-1,Baie de Seine,Chiendent,Chiendent feuille,,1,Elymus athericus,-26.952,7.29,
BM-CH-ChF-3bis,Baie du Mt St Michel,Chiendent,Chiendent feuille,,3B,Elymus athericus,-25.722,7.764,
BM-CH-ChF-3,Baie du Mt St Michel,Chiendent,Chiendent feuille,,3,Elymus athericus,-25.451,7.7,
BM-CH-ChF-2,Baie du Mt St Michel,Chiendent,Chiendent feuille,,2,Elymus athericus,-25.354,7.699,
BS-CH-ChF-3,Baie de Seine,Chiendent,Chiendent feuille,,3,Elymus athericus,-25.19,7.598,
BM-OB-ChF-1,Baie du Mt St Michel,Obione,Chiendent feuille,,1,Elymus athericus,-25.143,5.321,
BM-CH-ChF-1,Baie du Mt St Michel,Chiendent,Chiendent feuille,,1,Elymus athericus,-24.813,7.412,
BM-OB-ChF-2,Baie du Mt St Michel,Obione,Chiendent feuille,,2,Elymus athericus,-24.802,5.215,
BS-CH-ChF-2,Baie de Seine,Chiendent,Chiendent feuille,,2,Elymus athericus,-24.728,8.073,
BM-OB-ChF-3,Baie du Mt St Michel,Obione,Chiendent feuille,,3,Elymus athericus,-24.636,5.401,
BS-CH-ChR-2,Baie de Seine,Chiendent,Chiendent racine,,2,Elymus athericus,-26.22,5.604,
BS-CH-ChR-3,Baie de Seine,Chiendent,Chiendent racine,,3,Elymus athericus,-25.978,5.954,
BS-CH-ChR-1bis,Baie de Seine,Chiendent,Chiendent racine,,1B,Elymus athericus,-25.597,4.931,
BM-CH-ChR-3,Baie du Mt St Michel,Chiendent,Chiendent racine,,3,Elymus athericus,-25.379,5.621,
BM-CH-ChR-2,Baie du Mt St Michel,Chiendent,Chiendent racine,,2,Elymus athericus,-25.076,5.288,
BM-CH-ChR-1,Baie du Mt St Michel,Chiendent,Chiendent racine,,1,Elymus athericus,-21.873,6.352,
BS-CH-ChR-1,Baie de Seine,Chiendent,Chiendent racine,,1,Elymus athericus,-19.332,5.88,
BS-PHR-Ner-3,Baie de Seine,Phragmite,Nereis,,3,Hediste diversicolor ,-19.415,12.321,
BS-PHR-Ner-2,Baie de Seine,Phragmite,Nereis,,2,Hediste diversicolor ,-19.211,12.613,
BS-PHR-Ner-1,Baie de Seine,Phragmite,Nereis,,1,Hediste diversicolor ,-18.835,12.341,
BS-PUC-Ner-3,Baie de Seine,Puccinellie,Nereis,,3,Hediste diversicolor ,-17.234,11.544,
BS-PUC-Ner-2,Baie de Seine,Puccinellie,Nereis,,2,Hediste diversicolor ,-17.172,11.639,
BS-CH-Ner-2,Baie de Seine,Chiendent,Nereis,,2,Hediste diversicolor ,-17.166,12.668,
BS-CH-Ner-3,Baie de Seine,Chiendent,Nereis,,3,Hediste diversicolor ,-17.068,12.393,
BS-CH-Ner-1,Baie de Seine,Chiendent,Nereis,,1,Hediste diversicolor ,-17.044,12.207,
BS-CH-Ner-3bis,Baie de Seine,Chiendent,Nereis,,3B,Hediste diversicolor ,-17.001,12.3,
BM-CH-Ner-1,Baie du Mt St Michel,Chiendent,Nereis,,1,Hediste diversicolor ,-16.937,8.345,
BM-CH-Ner-2,Baie du Mt St Michel,Chiendent,Nereis,,2,Hediste diversicolor ,-16.915,8.165,
BM-CH-Ner-3,Baie du Mt St Michel,Chiendent,Nereis,,3,Hediste diversicolor ,-16.864,8.226,
BM-OB-Ner-1,Baie du Mt St Michel,Obione,Nereis,,1,Hediste diversicolor ,-16.209,10.14,
BM-OB-Ner-2,Baie du Mt St Michel,Obione,Nereis,,2,Hediste diversicolor ,-16.087,10.165,
BM-OB-Ner-3,Baie du Mt St Michel,Obione,Nereis,,3,Hediste diversicolor ,-15.898,9.85,
BM-PUC-Ner-3,Baie du Mt St Michel,Puccinellie,Nereis,,3,Hediste diversicolor ,-15.599,8.677,
BM-PUC-Ner-2,Baie du Mt St Michel,Puccinellie,Nereis,,2,Hediste diversicolor ,-15.457,8.397,
BM-PUC-Ner-1,Baie du Mt St Michel,Puccinellie,Nereis,,1,Hediste diversicolor ,-15.13,8.863,
BS-PUC-Hom-1,Baie de Seine,Puccinellie,Homoptère,,1,Homoptera,-24.377,6.437,
BM-PUC-Hom-1,Baie du Mt St Michel,Puccinellie,Homoptère,,1,Homoptera,-23.683,6.021,
BM-PUC-Hom-2,Baie du Mt St Michel,Puccinellie,Homoptère,,2,Homoptera,-23.441,6.158,
BS-PHR-Spha-4,Baie de Seine,Phragmite,Sphaerome,,4,Lekanesphaera rugicauda ,-19.836,8.093,no
BS-PUC-Spha-4bis,Baie de Seine,Puccinellie,Sphaerome,,4B,Lekanesphaera rugicauda ,-18.994,9.539,no
BS-PUC-Spha-4,Baie de Seine,Puccinellie,Sphaerome,,4,Lekanesphaera rugicauda ,-18.609,9.181,no
BS-CH-Spha-3,Baie de Seine,Chiendent,Sphaerome,,3,Lekanesphaera rugicauda ,-17.269,9.15,no
BM-CH-Spha-4,Baie du Mt St Michel,Chiendent,Sphaerome,,4,Lekanesphaera rugicauda ,-16.203,5.83,no
BM-OB-Spha-4,Baie du Mt St Michel,Obione,Sphaerome,,4,Lekanesphaera rugicauda ,-15.418,7.332,no
BS-PHR-Spha-DC-1,Baie de Seine,Phragmite,Sphaerome DC,,1,Lekanesphaera rugicauda ,-24.686,9.651,yes
BS-PHR-Spha-DC-2,Baie de Seine,Phragmite,Sphaerome DC,,2,Lekanesphaera rugicauda ,-24.606,4.684,yes
BS-CH-Spha-DC-2,Baie de Seine,Chiendent,Sphaerome DC,,2,Lekanesphaera rugicauda ,-22.472,7.593,yes
BM-CH-Spha-DC-2,Baie du Mt St Michel,Chiendent,Sphaerome DC,,2,Lekanesphaera rugicauda ,-20.992,8.258,yes
BS-CH-Spha-DC-1,Baie de Seine,Chiendent,Sphaerome DC,,1,Lekanesphaera rugicauda ,-20.706,8.141,yes
BM-CH-Spha-DC-1,Baie du Mt St Michel,Chiendent,Sphaerome DC,,1,Lekanesphaera rugicauda ,-20.238,6.097,yes
BS-PUC-Spha-DC-2,Baie de Seine,Puccinellie,Sphaerome DC,,2,Lekanesphaera rugicauda ,-19.195,9.541,yes
BM-CH-Spha-DC-3,Baie du Mt St Michel,Chiendent,Sphaerome DC,,3,Lekanesphaera rugicauda ,-18.909,6.969,yes
BS-PHR-Spha-DC-3,Baie de Seine,Phragmite,Sphaerome DC,,3,Lekanesphaera rugicauda ,-18.452,6.654,yes
BS-PUC-Spha-DC-3,Baie de Seine,Puccinellie,Sphaerome DC,,3,Lekanesphaera rugicauda ,-18.009,8.369,yes
BS-PUC-Spha-DC-1,Baie de Seine,Puccinellie,Sphaerome DC,,1,Lekanesphaera rugicauda ,-16.442,7.775,yes
BM-OB-Spha-DC-1,Baie du Mt St Michel,Obione,Sphaerome DC,,1,Lekanesphaera rugicauda ,-16.374,8.025,yes
BM-OB-Spha-DC-3,Baie du Mt St Michel,Obione,Sphaerome DC,,3,Lekanesphaera rugicauda ,-16.342,7.651,yes
BM-OB-Spha-DC-2,Baie du Mt St Michel,Obione,Sphaerome DC,,2,Lekanesphaera rugicauda ,-15.878,7.315,yes
BS-PHR-Lit-3,Baie de Seine,Phragmite,Litière,,3,Litter,-23.171,8.165,
BS-PHR-Lit-2,Baie de Seine,Phragmite,Litière,,2,Litter,-22.914,7.917,
BS-PHR-Lit-1,Baie de Seine,Phragmite,Litière,,1,Litter,-22.085,8.287,
BS-CH-Lit-2,Baie de Seine,Chiendent,Litière,,2,Litter,-14.489,7.333,
BS-CH-Lit-3bis,Baie de Seine,Chiendent,Litière,,3B,Litter,-12.753,7.916,
BS-CH-Lit-3,Baie de Seine,Chiendent,Litière,,3,Litter,-11.972,7.896,
BS-CH-Lit-1,Baie de Seine,Chiendent,Litière,,1,Litter,-11.522,7.956,
BM-CH-Lit-2,Baie du Mt St Michel,Chiendent,Litière,,2,Litter,-5.175,6.577,
BM-CH-Lit-3,Baie du Mt St Michel,Chiendent,Litière,,3,Litter,-5.04,7.455,
BM-OB-Mul150-180F-3,Baie du Mt St Michel,Obione,Mulet foie,150-180,3,Liza ramada ,-22.354,8.396,
BM-OB-Mul100-120F-2,Baie du Mt St Michel,Obione,Mulet foie,100-120,2,Liza ramada ,-22.046,9.06,
BS-CH-Mul100-120F-3bis,Baie de Seine,Chiendent,Mulet foie,100-120,3B,Liza ramada ,-21.7,14.502,
BS-PHR-Mul100-120F-3bis,Baie de Seine,Phragmite,Mulet foie,100-120,3B,Liza ramada ,-21.7,14.502,
BS-CH-Mul100-120F-3,Baie de Seine,Chiendent,Mulet foie,100-120,3,Liza ramada ,-21.693,14.406,
BS-PHR-Mul100-120F-3,Baie de Seine,Phragmite,Mulet foie,100-120,3,Liza ramada ,-21.693,14.406,
BM-OB-Mul100-120F-3,Baie du Mt St Michel,Obione,Mulet foie,100-120,3,Liza ramada ,-21.565,9.127,
BM-OB-Mul150-180F-1,Baie du Mt St Michel,Obione,Mulet foie,150-180,1,Liza ramada ,-21.49,8.27,
BM-OB-Mul100-120F-1,Baie du Mt St Michel,Obione,Mulet foie,100-120,1,Liza ramada ,-21.233,8.513,
BM-OB-Mul150-180F-2,Baie du Mt St Michel,Obione,Mulet foie,150-180,2,Liza ramada ,-21.09,6.994,
BS-CH-Mul100-120F-1,Baie de Seine,Chiendent,Mulet foie,100-120,1,Liza ramada ,-20.471,13.338,
BS-PHR-Mul100-120F-1,Baie de Seine,Phragmite,Mulet foie,100-120,1,Liza ramada ,-20.471,13.338,
BS-CH-Mul100-120F-2,Baie de Seine,Chiendent,Mulet foie,100-120,2,Liza ramada ,-19.813,12.659,
BS-PHR-Mul100-120F-2,Baie de Seine,Phragmite,Mulet foie,100-120,2,Liza ramada ,-19.813,12.659,
BM-CH-Mul100-120F-1,Baie du Mt St Michel,Chiendent,Mulet foie,100-120,1,Liza ramada ,-18.611,9.175,
BM-CH-Mul100-120F-2,Baie du Mt St Michel,Chiendent,Mulet foie,100-120,2,Liza ramada ,-18.593,8.527,
BM-CH-Mul100-120F-3,Baie du Mt St Michel,Chiendent,Mulet foie,100-120,3,Liza ramada ,-18.184,8.844,
BM-CH-Mul150-180F-3,Baie du Mt St Michel,Chiendent,Mulet foie,150-180,3,Liza ramada ,-17.774,"9,00",
BS-PUC-Mul80-100F-1,Baie de Seine,Puccinellie,Mulet foie,80-100,1,Liza ramada ,-17.365,11.676,
BS-PUC-Mul80-100F-2,Baie de Seine,Puccinellie,Mulet foie,80-100,2,Liza ramada ,-16.745,12.491,
BM-CH-Mul150-180F-2,Baie du Mt St Michel,Chiendent,Mulet foie,150-180,2,Liza ramada ,-16.628,8.497,
BM-CH-Mul150-180F-1,Baie du Mt St Michel,Chiendent,Mulet foie,150-180,1,Liza ramada ,-16.525,8.481,
BS-PUC-Mul80-100F-3,Baie de Seine,Puccinellie,Mulet foie,80-100,3,Liza ramada ,-16.242,12.742,
BM-PUC-Mul50-80F-1,Baie du Mt St Michel,Puccinellie,Mulet foie,50-80,1,Liza ramada ,-16.198,7.693,
BM-PUC-Mul100-120F-1,Baie du Mt St Michel,Puccinellie,Mulet foie,100-120,1,Liza ramada ,-15.623,8.216,
BM-OB-Mul150-180F-DL-4,Baie du Mt St Michel,Obione,Mulet foie DL,150-180,4,Liza ramada ,-21.045,8.623,
BM-OB-Mul100-120F-DL-4,Baie du Mt St Michel,Obione,Mulet foie DL,100-120,4,Liza ramada ,-20.565,8.106,
BS-CH-Mul100-120F-DL-4,Baie de Seine,Chiendent,Mulet foie DL,100-120,4,Liza ramada ,-20.096,12.821,
BS-PHR-Mul100-120F-DL-4,Baie de Seine,Phragmite,Mulet foie DL,100-120,4,Liza ramada ,-20.096,12.821,
BM-CH-Mul150-180F-DL-4,Baie du Mt St Michel,Chiendent,Mulet foie DL,150-180,4,Liza ramada ,-16.84,8.901,
BM-CH-Mul100-120F-DL-4,Baie du Mt St Michel,Chiendent,Mulet foie DL,100-120,4,Liza ramada ,-16.702,9.502,
BS-PUC-Mul80-100F-4,Baie de Seine,Puccinellie,Mulet foie DL,80-100,4,Liza ramada ,-16.522,12.54,
BS-PUC-Mul50-80M-3,Baie de Seine,Puccinellie,Mulet muscle,50-80,3,Liza ramada ,-25.996,14.978,
BS-PUC-Mul50-80M-2,Baie de Seine,Puccinellie,Mulet muscle,50-80,2,Liza ramada ,-24.078,14.147,
BS-CH-Mul50-80M-1,Baie de Seine,Chiendent,Mulet muscle,50-80,1,Liza ramada ,-23.176,13.782,
BS-PHR-Mul50-80M-1,Baie de Seine,Phragmite,Mulet muscle,50-80,1,Liza ramada ,-23.176,13.782,
BS-CH-Mul<50M-1,Baie de Seine,Chiendent,Mulet muscle,<50,1,Liza ramada ,-22.998,14.19,
BS-PHR-Mul<50M-1,Baie de Seine,Phragmite,Mulet muscle,<50,1,Liza ramada ,-22.998,14.19,
BS-CH-Mul100-120M-1,Baie de Seine,Chiendent,Mulet muscle,100-120,1,Liza ramada ,-22.773,14.476,
BS-PHR-Mul100-120M-1,Baie de Seine,Phragmite,Mulet muscle,100-120,1,Liza ramada ,-22.773,14.476,
BS-CH-Mul100-120M-3,Baie de Seine,Chiendent,Mulet muscle,100-120,3,Liza ramada ,-22.597,16.312,
BS-PHR-Mul100-120M-3,Baie de Seine,Phragmite,Mulet muscle,100-120,3,Liza ramada ,-22.597,16.312,
BM-CH-Mul50-80M-3,Baie du Mt St Michel,Chiendent,Mulet muscle,50-80,3,Liza ramada ,-21.564,10.757,
BS-CH-Mul50-80M-2,Baie de Seine,Chiendent,Mulet muscle,50-80,2,Liza ramada ,-21.213,13.798,
BS-PHR-Mul50-80M-2,Baie de Seine,Phragmite,Mulet muscle,50-80,2,Liza ramada ,-21.213,13.798,
BS-CH-Mul<50M-2,Baie de Seine,Chiendent,Mulet muscle,<50,2,Liza ramada ,-21.081,14.578,
BS-PHR-Mul<50M-2,Baie de Seine,Phragmite,Mulet muscle,<50,2,Liza ramada ,-21.081,14.578,
BS-CH-Mul100-120M-4,Baie de Seine,Chiendent,Mulet muscle,100-120,4,Liza ramada ,-20.554,14.778,
BS-PHR-Mul100-120M-4,Baie de Seine,Phragmite,Mulet muscle,100-120,4,Liza ramada ,-20.554,14.778,
BS-CH-Mul100-120M-2,Baie de Seine,Chiendent,Mulet muscle,100-120,2,Liza ramada ,-20.53,15.02,
BS-PHR-Mul100-120M-2,Baie de Seine,Phragmite,Mulet muscle,100-120,2,Liza ramada ,-20.53,15.02,
BS-CH-Mul50-80M-3,Baie de Seine,Chiendent,Mulet muscle,50-80,3,Liza ramada ,-20.451,12.579,
BS-PHR-Mul50-80M-3,Baie de Seine,Phragmite,Mulet muscle,50-80,3,Liza ramada ,-20.451,12.579,
BM-OB-Mul100-120M-2,Baie du Mt St Michel,Obione,Mulet muscle,100-120,2,Liza ramada ,-18.882,10.59,
BS-PUC-Mul<50M-2,Baie de Seine,Puccinellie,Mulet muscle,<50,2,Liza ramada ,-18.826,13.241,
BM-CH-Mul50-80M-3bis,Baie du Mt St Michel,Chiendent,Mulet muscle,50-80,3B,Liza ramada ,-18.744,10.922,
BM-OB-Mul150-180M-1,Baie du Mt St Michel,Obione,Mulet muscle,150-180,1,Liza ramada ,-18.676,10.176,
BM-OB-Mul150-180M-2,Baie du Mt St Michel,Obione,Mulet muscle,150-180,2,Liza ramada ,-18.657,9.143,
BM-OB-Mul150-180M-4,Baie du Mt St Michel,Obione,Mulet muscle,150-180,4,Liza ramada ,-18.644,9.719,
BM-OB-Mul150-180M-3,Baie du Mt St Michel,Obione,Mulet muscle,150-180,3,Liza ramada ,-18.594,9.851,
BM-OB-Mul100-120M-4,Baie du Mt St Michel,Obione,Mulet muscle,100-120,4,Liza ramada ,-18.437,9.324,
BM-PUC-Mul30M-1,Baie du Mt St Michel,Puccinellie,Mulet muscle,30,1,Liza ramada ,-18.366,10.613,
BM-OB-Mul100-120M-1,Baie du Mt St Michel,Obione,Mulet muscle,100-120,1,Liza ramada ,-18.329,10.327,
BS-PUC-Mul<50M-3,Baie de Seine,Puccinellie,Mulet muscle,<50,3,Liza ramada ,-18.266,13.448,
BM-OB-Mul100-120M-3,Baie du Mt St Michel,Obione,Mulet muscle,100-120,3,Liza ramada ,-18.021,9.76,
BM-PUC-Mul30M-2,Baie du Mt St Michel,Puccinellie,Mulet muscle,30,2,Liza ramada ,-17.818,10.882,
BS-CH-Mul<50M-3,Baie de Seine,Chiendent,Mulet muscle,<50,3,Liza ramada ,-17.75,13.246,
BS-PHR-Mul<50M-3,Baie de Seine,Phragmite,Mulet muscle,<50,3,Liza ramada ,-17.75,13.246,
BM-OB-Mul<50M-2,Baie du Mt St Michel,Obione,Mulet muscle,<50,2,Liza ramada ,-17.564,10.774,
BM-CH-Mul50-80M-1,Baie du Mt St Michel,Chiendent,Mulet muscle,50-80,1,Liza ramada ,-17.085,11.104,
BM-OB-mul50-80M-2,Baie du Mt St Michel,Obione,Mulet muscle,50-80,2,Liza ramada ,-17.012,10.513,
BS-PUC-Mul80-100M-1,Baie de Seine,Puccinellie,Mulet muscle,80-100,1,Liza ramada ,-16.869,12.053,
BM-OB-Mul50-80M-1,Baie du Mt St Michel,Obione,Mulet muscle,50-80,1,Liza ramada ,-16.575,11.59,
BS-PUC-Mul50-80M-1,Baie de Seine,Puccinellie,Mulet muscle,50-80,1,Liza ramada ,-16.114,13.576,
BM-CH-Mul150-180M-1,Baie du Mt St Michel,Chiendent,Mulet muscle,150-180,1,Liza ramada ,-16.107,11.333,
BM-OB-Mul<50M-1,Baie du Mt St Michel,Obione,Mulet muscle,<50,1,Liza ramada ,-16.106,11.146,
BS-PUC-Mul<50M-1,Baie de Seine,Puccinellie,Mulet muscle,<50,1,Liza ramada ,-16.092,12.645,
BM-CH-Mul150-180M-1bis,Baie du Mt St Michel,Chiendent,Mulet muscle,150-180,1B,Liza ramada ,-16.001,11.325,
BS-PUC-Mul80-100M-4,Baie de Seine,Puccinellie,Mulet muscle,80-100,4,Liza ramada ,-15.982,13.174,
BM-OB-Mul<50M-3,Baie du Mt St Michel,Obione,Mulet muscle,<50,3,Liza ramada ,-15.954,11.615,
BM-CH-Mul150-180M-4,Baie du Mt St Michel,Chiendent,Mulet muscle,150-180,4,Liza ramada ,-15.939,10.731,
BM-CH-Mul150-180M-3,Baie du Mt St Michel,Chiendent,Mulet muscle,150-180,3,Liza ramada ,-15.905,10.683,
BM-CH-Mul100-120M-2,Baie du Mt St Michel,Chiendent,Mulet muscle,100-120,2,Liza ramada ,-15.824,10.692,
BM-CH-Mul100-120M-1,Baie du Mt St Michel,Chiendent,Mulet muscle,100-120,1,Liza ramada ,-15.822,10.618,
BS-PUC-Mul80-100M-2,Baie de Seine,Puccinellie,Mulet muscle,80-100,2,Liza ramada ,-15.416,13.176,
BM-CH-Mul150-180M-2,Baie du Mt St Michel,Chiendent,Mulet muscle,150-180,2,Liza ramada ,-15.241,10.367,
BM-CH-Mul100-120M-3,Baie du Mt St Michel,Chiendent,Mulet muscle,100-120,3,Liza ramada ,-15.205,9.831,
BM-CH-Mul50-80M-2,Baie du Mt St Michel,Chiendent,Mulet muscle,50-80,2,Liza ramada ,-15.202,9.482,
BS-PUC-Mul80-100M-3,Baie de Seine,Puccinellie,Mulet muscle,80-100,3,Liza ramada ,-15.06,13.74,
BM-CH-Mul100-120M-4,Baie du Mt St Michel,Chiendent,Mulet muscle,100-120,4,Liza ramada ,-15.042,9.73,
BM-PUC-Mul100-120M-1,Baie du Mt St Michel,Puccinellie,Mulet muscle,100-120,1,Liza ramada ,-14.646,9.141,
BM-PUC-Mul<50M-3,Baie du Mt St Michel,Puccinellie,Mulet muscle,<50,3,Liza ramada ,-14.592,9.011,
BM-PUC-Mul<50M-1,Baie du Mt St Michel,Puccinellie,Mulet muscle,<50,1,Liza ramada ,-14.336,10.947,
BM-PUC-Mul<50M-2,Baie du Mt St Michel,Puccinellie,Mulet muscle,<50,2,Liza ramada ,-14.199,10.582,
BM-CH-Mul<50M-3,Baie du Mt St Michel,Chiendent,Mulet muscle,<50,3,Liza ramada ,-13.956,11.138,
BM-CH-Mul<50M-1,Baie du Mt St Michel,Chiendent,Mulet muscle,<50,1,Liza ramada ,-13.825,10.987,
BM-CH-Mul<50M-2,Baie du Mt St Michel,Chiendent,Mulet muscle,<50,2,Liza ramada ,-13.326,10.744,
BM-CH-Ara-3,Baie du Mt St Michel,Chiendent,Araignée,,3,Lycosidae,-23.577,13.04,
BM-CH-Ara-1,Baie du Mt St Michel,Chiendent,Araignée,,1,Lycosidae,-23.379,13.805,
BM-CH-Ara-2,Baie du Mt St Michel,Chiendent,Araignée,,2,Lycosidae,-23.229,13.566,
BS-PHR-Ara-1,Baie de Seine,Phragmite,Araignées,,1,Lycosidae,-24.452,12.8,
BS-CH-Ara-1,Baie de Seine,Chiendent,Araignées,,1,Lycosidae,-24.182,13.883,
BM-OB-Ara-2,Baie du Mt St Michel,Obione,Araignées,,2,Lycosidae,-24.086,13.455,
BM-OB-Ara-1,Baie du Mt St Michel,Obione,Araignées,,1,Lycosidae,-23.968,12.795,
BS-CH-Ara-2,Baie de Seine,Chiendent,Araignées,,2,Lycosidae,-23.926,14.736,
BM-OB-Ara-3,Baie du Mt St Michel,Obione,Araignées,,3,Lycosidae,-23.751,13.513,
BM-OB-Ara-1bis,Baie du Mt St Michel,Obione,Araignées,,1B,Lycosidae,-23.708,13.359,
BM-PUC-Ara-2,Baie du Mt St Michel,Puccinellie,Araignées,,2,Lycosidae,-22.851,10.305,
BM-PUC-Ara-1,Baie du Mt St Michel,Puccinellie,Araignées,,1,Lycosidae,-22.153,10.993,
BS-CH-MPB-3,Baie de Seine,Chiendent,MPB,,3,MicroPhytoBenthos,-20.379,11.92,
BS-CH-MPB-2,Baie de Seine,Chiendent,MPB,,2,MicroPhytoBenthos,-20.335,11.774,
BS-CH-MPB-1,Baie de Seine,Chiendent,MPB,,1,MicroPhytoBenthos,-20.332,11.889,
BS-PUC-MPB-3,Baie de Seine,Puccinellie,MPB,,3,MicroPhytoBenthos,-19.184,9.883,
BS-PUC-MPB-2,Baie de Seine,Puccinellie,MPB,,2,MicroPhytoBenthos,-19.135,9.883,
BS-PUC-MPB-1,Baie de Seine,Puccinellie,MPB,,1,MicroPhytoBenthos,-19.118,10.155,
BM-PUC-MPB-3,Baie du Mt St Michel,Puccinellie,MPB,,3,MicroPhytoBenthos,-18.6,7.256,
BM-PUC-MPB-1,Baie du Mt St Michel,Puccinellie,MPB,,1,MicroPhytoBenthos,-18.599,7.281,
BM-PUC-MPB-2,Baie du Mt St Michel,Puccinellie,MPB,,2,MicroPhytoBenthos,-18.596,7.221,
BS-PHR-MPB-3,Baie de Seine,Phragmite,MPB,,3,MicroPhytoBenthos,-18.15,10.838,
BS-PHR-MPB-2,Baie de Seine,Phragmite,MPB,,2,MicroPhytoBenthos,-18.048,10.611,
BS-PHR-MPB-1,Baie de Seine,Phragmite,MPB,,1,MicroPhytoBenthos,-18.001,10.799,
BM-CH-MPB-1,Baie du Mt St Michel,Chiendent,MPB,,1,MicroPhytoBenthos,-16.706,7.116,
BM-CH-MPB-2,Baie du Mt St Michel,Chiendent,MPB,,2,MicroPhytoBenthos,-16.697,7.045,
BM-CH-MPB-3,Baie du Mt St Michel,Chiendent,MPB,,3,MicroPhytoBenthos,-16.681,7.12,
BM-OB-MPB-1,Baie du Mt St Michel,Obione,MPB,,1,MicroPhytoBenthos,-15.921,6.448,
BM-OB-MPB-3,Baie du Mt St Michel,Obione,MPB,,3,MicroPhytoBenthos,-15.91,6.408,
BM-OB-MPB-2,Baie du Mt St Michel,Obione,MPB,,2,MicroPhytoBenthos,-15.902,6.237,
BS-CH-Kril-4,Baie de Seine,Chiendent,Krill,,4,Mysida,-18.811,11.56,no
BS-PHR-Kril-4,Baie de Seine,Phragmite,Krill,,4,Mysida,-18.811,11.56,no
BS-PUC-Kril-4,Baie de Seine,Puccinellie,Krill,,4,Mysida,-18.225,12.133,no
BM-CH-Kril-4,Baie du Mt St Michel,Chiendent,Krill,,4,Mysida,-16.272,10.66,no
BM-OB-Kril-4,Baie du Mt St Michel,Obione,Krill,,4,Mysida,-16.136,10.872,no
BS-CH-Kril-DC-1,Baie de Seine,Chiendent,Krill DC,,1,Mysida,-19.103,12.188,yes
BS-PHR-Kril-DC-1,Baie de Seine,Phragmite,Krill DC,,1,Mysida,-19.103,12.188,yes
BS-CH-Kril-DC-2,Baie de Seine,Chiendent,Krill DC,,2,Mysida,-18.995,12.029,yes
BS-PHR-Kril-DC-2,Baie de Seine,Phragmite,Krill DC,,2,Mysida,-18.995,12.029,yes
BS-PUC-Kril-DC-1,Baie de Seine,Puccinellie,Krill DC,,1,Mysida,-18.415,11.85,yes
BS-CH-Kril-DC-3,Baie de Seine,Chiendent,Krill DC,,3,Mysida,-18.226,12.521,yes
BS-PHR-Kril-DC-3,Baie de Seine,Phragmite,Krill DC,,3,Mysida,-18.226,12.521,yes
BS-PUC-Kril-DC-2,Baie de Seine,Puccinellie,Krill DC,,2,Mysida,-18.096,11.986,yes
BS-PUC-Kril-DC-3,Baie de Seine,Puccinellie,Krill DC,,3,Mysida,-17.617,12.428,yes
BM-CH-Kril-DC-2,Baie du Mt St Michel,Chiendent,Krill DC,,2,Mysida,-15.963,10.867,yes
BM-OB-Kril-DC-2,Baie du Mt St Michel,Obione,Krill DC,,2,Mysida,-15.83,10.924,yes
BM-OB-Kril-DC-1,Baie du Mt St Michel,Obione,Krill DC,,1,Mysida,-15.823,11.328,yes
BM-OB-Kril-DC-3,Baie du Mt St Michel,Obione,Krill DC,,3,Mysida,-15.785,11.161,yes
BM-CH-Kril-DC-1,Baie du Mt St Michel,Chiendent,Krill DC,,1,Mysida,-15.757,10.908,yes
BM-CH-Kril-DC-3,Baie du Mt St Michel,Chiendent,Krill DC,,3,Mysida,-15.702,11.069,yes
BS-PHR-Orch-4,Baie de Seine,Phragmite,Orchestia,,4,Orchestia gammarella ,-23.207,10.1,no
BM-CH-Orch-4,Baie du Mt St Michel,Chiendent,Orchestia,,4,Orchestia gammarella ,-23.05,9.576,no
BS-CH-Orch-4,Baie de Seine,Chiendent,Orchestia,,4,Orchestia gammarella ,-22.965,11.179,no
BM-OB-Orch-4,Baie du Mt St Michel,Obione,Orchestia,,4,Orchestia gammarella ,-22.797,9.377,no
BS-PUC-Orch-4,Baie de Seine,Puccinellie,Orchestia,,4,Orchestia gammarella ,-22.333,10.789,no
BM-CH-Orch-DC-3,Baie du Mt St Michel,Chiendent,Orchestia DC,,3,Orchestia gammarella ,-24.539,8.347,yes
BS-CH-Orch-DC-2,Baie de Seine,Chiendent,Orchestia DC,,2,Orchestia gammarella ,-24.061,10.9,yes
BM-CH-Orch-DC-2,Baie du Mt St Michel,Chiendent,Orchestia DC,,2,Orchestia gammarella ,-24.044,9.073,yes
BM-OB-Orch-DC-1,Baie du Mt St Michel,Obione,Orchestia DC,,1,Orchestia gammarella ,-23.88,8.317,yes
BM-OB-Orch-DC-2,Baie du Mt St Michel,Obione,Orchestia DC,,2,Orchestia gammarella ,-23.712,8.378,yes
BS-PHR-Orch-DC-3,Baie de Seine,Phragmite,Orchestia DC,,3,Orchestia gammarella ,-23.67,9.733,yes
BS-PHR-Orch-DC-2,Baie de Seine,Phragmite,Orchestia DC,,2,Orchestia gammarella ,-23.65,9.835,yes
BS-PHR-Orch-DC-1,Baie de Seine,Phragmite,Orchestia DC,,1,Orchestia gammarella ,-23.513,9.908,yes
BS-CH-Orch-DC-3,Baie de Seine,Chiendent,Orchestia DC,,3,Orchestia gammarella ,-23.456,10.961,yes
BS-CH-Orch-DC-1,Baie de Seine,Chiendent,Orchestia DC,,1,Orchestia gammarella ,-23.447,10.921,yes
BM-OB-Orch-DC-3,Baie du Mt St Michel,Obione,Orchestia DC,,3,Orchestia gammarella ,-23.313,7.281,yes
BS-PUC-Orch-DC-2,Baie de Seine,Puccinellie,Orchestia DC,,2,Orchestia gammarella ,-23.041,10.118,yes
BM-PUC-Orch-DC-2,Baie du Mt St Michel,Puccinellie,Orchestia DC,,2,Orchestia gammarella ,-22.476,5.341,yes
BS-PUC-Orch-4bis,Baie de Seine,Puccinellie,Orchestia DC,,4B,Orchestia gammarella ,-22.349,10.787,yes
BS-PUC-Orch-DC-1,Baie de Seine,Puccinellie,Orchestia DC,,1,Orchestia gammarella ,-22.154,10.439,yes
BM-PUC-Orch-DC-1,Baie du Mt St Michel,Puccinellie,Orchestia DC,,1,Orchestia gammarella ,-22.053,4.877,yes
BM-OB-Crev-4,Baie du Mt St Michel,Obione,Crevette,,4,Palaemonetes varians ,-18.859,11.923,no
BS-CH-Crev-4,Baie de Seine,Chiendent,Crevette,,4,Palaemonetes varians ,-18.856,13.01,no
BS-PHR-Crev-4,Baie de Seine,Phragmite,Crevette,,4,Palaemonetes varians ,-18.856,13.01,no
BS-PUC-Crev-4,Baie de Seine,Puccinellie,Crevette,,4,Palaemonetes varians ,-18.373,12.803,no
BM-PUC-Crev-4,Baie du Mt St Michel,Puccinellie,Crevette,,4,Palaemonetes varians ,-17.415,9.981,no
BM-CH-Crev-4,Baie du Mt St Michel,Chiendent,Crevette,,4,Palaemonetes varians ,-16.786,10.423,no
BM-OB-Crev-DC-1,Baie du Mt St Michel,Obione,Crevette DC,,1,Palaemonetes varians ,-20.269,11.698,yes
BS-PUC-Crev-DC-1,Baie de Seine,Puccinellie,Crevette DC,,1,Palaemonetes varians ,-20.216,13.305,yes
BM-OB-Crev-DC-2,Baie du Mt St Michel,Obione,Crevette DC,,2,Palaemonetes varians ,-19.825,11.961,yes
BS-CH-Crev-DC-3,Baie de Seine,Chiendent,Crevette DC,,3,Palaemonetes varians ,-19.652,14.416,yes
BS-PHR-Crev-DC-3,Baie de Seine,Phragmite,Crevette DC,,3,Palaemonetes varians ,-19.652,14.416,yes
BS-PUC-Crev-DC-3,Baie de Seine,Puccinellie,Crevette DC,,3,Palaemonetes varians ,-19.628,13.06,yes
BS-CH-Crev-DC-2,Baie de Seine,Chiendent,Crevette DC,,2,Palaemonetes varians ,-19.321,14.284,yes
BS-PHR-Crev-DC-2,Baie de Seine,Phragmite,Crevette DC,,2,Palaemonetes varians ,-19.321,14.284,yes
BS-PUC-Crev-DC-2,Baie de Seine,Puccinellie,Crevette DC,,2,Palaemonetes varians ,-19.189,11.804,yes
BS-CH-Crev-DC-1,Baie de Seine,Chiendent,Crevette DC,,1,Palaemonetes varians ,-19.062,14.047,yes
BS-PHR-Crev-DC-1,Baie de Seine,Phragmite,Crevette DC,,1,Palaemonetes varians ,-19.062,14.047,yes
BM-CH-Crev-DC-1,Baie du Mt St Michel,Chiendent,Crevette DC,,1,Palaemonetes varians ,-18.843,10.801,yes
BM-CH-Crev-DC-3,Baie du Mt St Michel,Chiendent,Crevette DC,,3,Palaemonetes varians ,-18.442,11.098,yes
BM-OB-Crev-DC-3,Baie du Mt St Michel,Obione,Crevette DC,,3,Palaemonetes varians ,-18.122,11.543,yes
BM-PUC-Crev-DC-2,Baie du Mt St Michel,Puccinellie,Crevette DC,,2,Palaemonetes varians ,-17.911,9.446,yes
BM-PUC-Crev-DC-3,Baie du Mt St Michel,Puccinellie,Crevette DC,,3,Palaemonetes varians ,-17.768,10.307,yes
BM-PUC-Crev-DC-1,Baie du Mt St Michel,Puccinellie,Crevette DC,,1,Palaemonetes varians ,-17.662,10.032,yes
BM-CH-Crev-DC-2,Baie du Mt St Michel,Chiendent,Crevette DC,,2,Palaemonetes varians ,-16.618,10.883,yes
BS-PHR-PhrF-2,Baie de Seine,Phragmite,Phragmite feuille,,2,Phragmites australis,-26.902,8.958,
BS-PHR-PhrF-1,Baie de Seine,Phragmite,Phragmite feuille,,1,Phragmites australis,-26.852,8.254,
BS-PHR-PhrF-3bis,Baie de Seine,Phragmite,Phragmite feuille,,3B,Phragmites australis,-26.386,8.942,
BS-PHR-PhrF-3,Baie de Seine,Phragmite,Phragmite feuille,,3,Phragmites australis,-26.214,8.885,
BS-PHR-PhrR-3,Baie de Seine,Phragmite,Phragmite racine,,3,Phragmites australis,-25.321,6.32,
BS-PHR-PhrR-2,Baie de Seine,Phragmite,Phragmite racine,,2,Phragmites australis,-24.898,7.178,
BS-PHR-PhrR-1,Baie de Seine,Phragmite,Phragmite racine,,1,Phragmites australis,-24.634,5.652,
BS-CH-Pog-1,Baie de Seine,Chiendent,Pogonus,,1,Pogonus chalceus spp ,-25.422,19.404,
BM-PUC-Pog-1,Baie du Mt St Michel,Puccinellie,Pogonus,,1,Pogonus chalceus spp ,-25.289,11.356,
BM-PUC-Pog-1bis,Baie du Mt St Michel,Puccinellie,Pogonus,,1B,Pogonus chalceus spp ,-24.512,10.349,
BS-PHR-Pog-1,Baie de Seine,Phragmite,Pogonus,,1,Pogonus chalceus spp ,-23.734,13.007,
BS-PUC-Pog-1,Baie de Seine,Puccinellie,Pogonus,,1,Pogonus chalceus spp ,-23.636,16.93,
BM-PUC-Pog-2,Baie du Mt St Michel,Puccinellie,Pogonus,,2,Pogonus chalceus spp ,-23.5,11.35,
BS-CH-Pog-2,Baie de Seine,Chiendent,Pogonus,,2,Pogonus chalceus spp ,-22.653,17.065,
BS-CH-MOP-Flo-1,Baie de Seine,Chiendent,MOP flot,,1,POM,-25.342,3.279,
BS-PHR-MOP-Flo-1,Baie de Seine,Phragmite,MOP flot,,1,POM,-25.342,3.279,
BS-CH-MOP-Flo-3,Baie de Seine,Chiendent,MOP flot,,3,POM,-25.262,12.311,
BS-PHR-MOP-Flo-3,Baie de Seine,Phragmite,MOP flot,,3,POM,-25.262,12.311,
BS-CH-MOP-Flo-2,Baie de Seine,Chiendent,MOP flot,,2,POM,-25.09,11.835,
BS-PHR-MOP-Flo-2,Baie de Seine,Phragmite,MOP flot,,2,POM,-25.09,11.835,
BS-PUC-MOP-Flo-1,Baie de Seine,Puccinellie,MOP flot,,1,POM,-24.801,11.063,
BS-PUC-MOP-Flo-3,Baie de Seine,Puccinellie,MOP flot,,3,POM,-24.574,5.195,
BS-PUC-MOP-Flo-2,Baie de Seine,Puccinellie,MOP flot,,2,POM,-24.457,11.665,
BM-OB-MOP-Flo-2,Baie du Mt St Michel,Obione,MOP flot,,2,POM,-22.341,2.639,
BM-OB-MOP-Flo-1,Baie du Mt St Michel,Obione,MOP flot,,1,POM,-21.971,2.953,
BM-OB-MOP-Flo-3,Baie du Mt St Michel,Obione,MOP flot,,3,POM,-21.968,2.431,
BM-CH-MOP-Flo-2,Baie du Mt St Michel,Chiendent,MOP flot,,2,POM,-20.728,2.747,
BM-CH-MOP-Flo-1,Baie du Mt St Michel,Chiendent,MOP flot,,1,POM,-20.574,5.012,
BM-PUC-MOP-Flo-3,Baie du Mt St Michel,Puccinellie,MOP flot,,3,POM,-20.444,4.456,
BM-CH-MOP-Flo-3,Baie du Mt St Michel,Chiendent,MOP flot,,3,POM,-20.432,4.616,
BM-PUC-MOP-Flo-1,Baie du Mt St Michel,Puccinellie,MOP flot,,1,POM,-20.247,3.182,
BM-PUC-MOP-Flo-2,Baie du Mt St Michel,Puccinellie,MOP flot,,2,POM,-20.241,4.304,
BS-CH-MOP-Jus-3,Baie de Seine,Chiendent,MOP jusant,,3,POM,-25.678,2.536,
BS-PHR-MOP-Jus-3,Baie de Seine,Phragmite,MOP jusant,,3,POM,-25.678,2.536,
BS-CH-MOP-Jus-1,Baie de Seine,Chiendent,MOP jusant,,1,POM,-25.481,15.487,
BS-PHR-MOP-Jus-1,Baie de Seine,Phragmite,MOP jusant,,1,POM,-25.481,15.487,
BS-CH-MOP-Jus-2,Baie de Seine,Chiendent,MOP jusant,,2,POM,-25.198,15.659,
BS-PHR-MOP-Jus-2,Baie de Seine,Phragmite,MOP jusant,,2,POM,-25.198,15.659,
BS-PUC-MOP-Jus-3,Baie de Seine,Puccinellie,MOP jusant,,3,POM,-23.715,4.124,
BS-PUC-MOP-Jus-1,Baie de Seine,Puccinellie,MOP jusant,,1,POM,-23.343,9.417,
BS-PUC-MOP-Jus-2,Baie de Seine,Puccinellie,MOP jusant,,2,POM,-23.134,9.175,
BM-OB-MOP-Jus-1,Baie du Mt St Michel,Obione,MOP jusant,,1,POM,-21.772,3.899,
BM-OB-MOP-Jus-2,Baie du Mt St Michel,Obione,MOP jusant,,2,POM,-21.711,2.833,
BM-OB-MOP-Jus-3,Baie du Mt St Michel,Obione,MOP jusant,,3,POM,-21.684,3.492,
BM-PUC-MOP-Jus-3,Baie du Mt St Michel,Puccinellie,MOP jusant,,3,POM,-20.474,4.944,
BM-PUC-MOP-Jus-1,Baie du Mt St Michel,Puccinellie,MOP jusant,,1,POM,-20.402,6.42,
BM-PUC-MOP-Jus-2,Baie du Mt St Michel,Puccinellie,MOP jusant,,2,POM,-20.135,4.64,
BM-CH-MOP-Jus-3,Baie du Mt St Michel,Chiendent,MOP jusant,,3,POM,-19.158,3.386,
BM-CH-MOP-Jus-1,Baie du Mt St Michel,Chiendent,MOP jusant,,1,POM,-19.135,3.615,
BM-CH-MOP-Jus-2,Baie du Mt St Michel,Chiendent,MOP jusant,,2,POM,-18.847,3.545,
BM-MER-MOP-2,Baie du Mt St Michel,Mer,MOP mer,,2,POM,-23.894,3.928,
BM-MER-MOP-2,Baie du Mt St Michel,Mer,MOP mer,,2,POM,-23.894,3.928,
BM-MER-MOP-2,Baie du Mt St Michel,Mer,MOP mer,,2,POM,-23.894,3.928,
BM-MER-MOP-3,Baie du Mt St Michel,Mer,MOP mer,,3,POM,-23.516,3.964,
BM-MER-MOP-3,Baie du Mt St Michel,Mer,MOP mer,,3,POM,-23.516,3.964,
BM-MER-MOP-3,Baie du Mt St Michel,Mer,MOP mer,,3,POM,-23.516,3.964,
BM-MER-MOP-1,Baie du Mt St Michel,Mer,MOP mer,,1,POM,-23.477,2.914,
BM-MER-MOP-1,Baie du Mt St Michel,Mer,MOP mer,,1,POM,-23.477,2.914,
BM-MER-MOP-1,Baie du Mt St Michel,Mer,MOP mer,,1,POM,-23.477,2.914,
BS-MER-MOP-3,Baie de Seine,Mer,MOP mer,,3,POM,-15.021,9.691,
BS-MER-MOP-3,Baie de Seine,Mer,MOP mer,,3,POM,-15.021,9.691,
BS-MER-MOP-3,Baie de Seine,Mer,MOP mer,,3,POM,-15.021,9.691,
BS-MER-MOP-2,Baie de Seine,Mer,MOP mer,,2,POM,-14.532,9.925,
BS-MER-MOP-2,Baie de Seine,Mer,MOP mer,,2,POM,-14.532,9.925,
BS-MER-MOP-2,Baie de Seine,Mer,MOP mer,,2,POM,-14.532,9.925,
BS-MER-MOP-1,Baie de Seine,Mer,MOP mer,,1,POM,-14.145,9.522,
BS-MER-MOP-1,Baie de Seine,Mer,MOP mer,,1,POM,-14.145,9.522,
BS-MER-MOP-1,Baie de Seine,Mer,MOP mer,,1,POM,-14.145,9.522,
BM-RIV-MOP-3,Baie du Mt St Michel,Rivière,MOP rivière,,3,POM,-29.029,5.3,
BM-RIV-MOP-3,Baie du Mt St Michel,Rivière,MOP rivière,,3,POM,-29.029,5.3,
BM-RIV-MOP-3,Baie du Mt St Michel,Rivière,MOP rivière,,3,POM,-29.029,5.3,
BM-RIV-MOP-1,Baie du Mt St Michel,Rivière,MOP rivière,,1,POM,-28.819,4.972,
BM-RIV-MOP-1,Baie du Mt St Michel,Rivière,MOP rivière,,1,POM,-28.819,4.972,
BM-RIV-MOP-1,Baie du Mt St Michel,Rivière,MOP rivière,,1,POM,-28.819,4.972,
BS-RIV-MOP-1,Baie de Seine,Rivière,MOP rivière,,1,POM,-28.552,4.435,
BS-RIV-MOP-1,Baie de Seine,Rivière,MOP rivière,,1,POM,-28.552,4.435,
BS-RIV-MOP-1,Baie de Seine,Rivière,MOP rivière,,1,POM,-28.552,4.435,
BS-RIV-MOP-2,Baie de Seine,Rivière,MOP rivière,,2,POM,-28.468,4.407,
BS-RIV-MOP-2,Baie de Seine,Rivière,MOP rivière,,2,POM,-28.468,4.407,
BS-RIV-MOP-2,Baie de Seine,Rivière,MOP rivière,,2,POM,-28.468,4.407,
BS-RIV-MOP-3,Baie de Seine,Rivière,MOP rivière,,3,POM,-28.36,5.122,
BS-RIV-MOP-3,Baie de Seine,Rivière,MOP rivière,,3,POM,-28.36,5.122,
BS-RIV-MOP-3,Baie de Seine,Rivière,MOP rivière,,3,POM,-28.36,5.122,
BM-RIV-MOP-2,Baie du Mt St Michel,Rivière,MOP rivière,,2,POM,-24.968,4.857,
BM-RIV-MOP-2,Baie du Mt St Michel,Rivière,MOP rivière,,2,POM,-24.968,4.857,
BM-RIV-MOP-2,Baie du Mt St Michel,Rivière,MOP rivière,,2,POM,-24.968,4.857,
BS-CH-Gob<40M-3,Baie de Seine,Chiendent,Gobie muscle,<40,3,Pomatoschistus microps ,-21.575,16.588,
BS-PHR-Gob<40M-3,Baie de Seine,Phragmite,Gobie muscle,<40,3,Pomatoschistus microps ,-21.575,16.588,
BS-PUC-Gob<40M-3,Baie de Seine,Puccinellie,Gobie muscle,<40,3,Pomatoschistus microps ,-21.535,16.536,
BS-CH-Gob<40M-1,Baie de Seine,Chiendent,Gobie muscle,<40,1,Pomatoschistus microps ,-20.499,15.865,
BS-PHR-Gob<40M-1,Baie de Seine,Phragmite,Gobie muscle,<40,1,Pomatoschistus microps ,-20.499,15.865,
BS-PUC-Gob>40M-2,Baie de Seine,Puccinellie,Gobie muscle,>40,2,Pomatoschistus microps ,-19.785,18,
BS-CH-Gob<40M-2,Baie de Seine,Chiendent,Gobie muscle,<40,2,Pomatoschistus microps ,-19.589,15.988,
BS-PHR-Gob<40M-2,Baie de Seine,Phragmite,Gobie muscle,<40,2,Pomatoschistus microps ,-19.589,15.988,
BS-PUC-Gob<40M-2,Baie de Seine,Puccinellie,Gobie muscle,<40,2,Pomatoschistus microps ,-19.173,16.138,
BS-CH-Gob>40M-2,Baie de Seine,Chiendent,Gobie muscle,>40,2,Pomatoschistus microps ,-18.305,15.837,
BS-PHR-Gob>40M-2,Baie de Seine,Phragmite,Gobie muscle,>40,2,Pomatoschistus microps ,-18.305,15.837,
BS-CH-Gob>40M-3bis,Baie de Seine,Chiendent,Gobie muscle,>40,3B,Pomatoschistus microps ,-17.62,16.095,
BS-PHR-Gob>40M-3bis,Baie de Seine,Phragmite,Gobie muscle,>40,3B,Pomatoschistus microps ,-17.62,16.095,
BS-CH-Gob>40M-3,Baie de Seine,Chiendent,Gobie muscle,>40,3,Pomatoschistus microps ,-17.583,16.114,
BS-PHR-Gob>40M-3,Baie de Seine,Phragmite,Gobie muscle,>40,3,Pomatoschistus microps ,-17.583,16.114,
BS-CH-Gob>40M-1,Baie de Seine,Chiendent,Gobie muscle,>40,1,Pomatoschistus microps ,-17.26,15.669,
BS-PHR-Gob>40M-1,Baie de Seine,Phragmite,Gobie muscle,>40,1,Pomatoschistus microps ,-17.26,15.669,
BS-PUC-Gob>40M-1,Baie de Seine,Puccinellie,Gobie muscle,>40,1,Pomatoschistus microps ,-17.159,16.309,
BS-PUC-Gob>40M-3,Baie de Seine,Puccinellie,Gobie muscle,>40,3,Pomatoschistus microps ,-17.013,15.935,
BS-PUC-Gob<40M-1,Baie de Seine,Puccinellie,Gobie muscle,<40,1,Pomatoschistus microps ,-16.904,16.779,
BM-CH-Gob>40M-3,Baie du Mt St Michel,Chiendent,Gobie muscle,>40,3,Pomatoschistus microps ,-16.398,14.272,
BM-CH-Gob<40M-1,Baie du Mt St Michel,Chiendent,Gobie muscle,<40,1,Pomatoschistus microps ,-16.085,13.586,
BM-OB-Gob>40M-1,Baie du Mt St Michel,Obione,Gobie muscle,>40,1,Pomatoschistus microps ,-16.055,14.383,
BM-CH-Gob>40M-1,Baie du Mt St Michel,Chiendent,Gobie muscle,>40,1,Pomatoschistus microps ,-16.038,14.093,
BM-CH-Gob<40M-3,Baie du Mt St Michel,Chiendent,Gobie muscle,<40,3,Pomatoschistus microps ,-15.8,14.355,
BM-CH-Gob>40M-2,Baie du Mt St Michel,Chiendent,Gobie muscle,>40,2,Pomatoschistus microps ,-15.368,14.2,
BM-CH-Gob<40M-2,Baie du Mt St Michel,Chiendent,Gobie muscle,<40,2,Pomatoschistus microps ,-15.304,13.97,
BM-CH-Gob<40M-2bis,Baie du Mt St Michel,Chiendent,Gobie muscle,<40,2B,Pomatoschistus microps ,-15.247,14.079,
BM-OB-Gob<40M-2,Baie du Mt St Michel,Obione,Gobie muscle,<40,2,Pomatoschistus microps ,-15.218,13.259,
BM-OB-Gob<40M-1,Baie du Mt St Michel,Obione,Gobie muscle,<40,1,Pomatoschistus microps ,-15.215,13.475,
BM-OB-Gob<40M-3,Baie du Mt St Michel,Obione,Gobie muscle,<40,3,Pomatoschistus microps ,-15.178,13.361,
BM-PUC-Gob<40M-1,Baie du Mt St Michel,Puccinellie,Gobie muscle,<40,1,Pomatoschistus microps ,-15.067,13.209,
BM-OB-Gob>40M-2,Baie du Mt St Michel,Obione,Gobie muscle,>40,2,Pomatoschistus microps ,-14.932,14.474,
BM-OB-Gob>40M-3,Baie du Mt St Michel,Obione,Gobie muscle,>40,3,Pomatoschistus microps ,-14.697,14.36,
BM-PUC-Gob<40M-3,Baie du Mt St Michel,Puccinellie,Gobie muscle,<40,3,Pomatoschistus microps ,-14.241,12.667,
BM-PUC-Gob<40M-2,Baie du Mt St Michel,Puccinellie,Gobie muscle,<40,2,Pomatoschistus microps ,-14.154,12.903,
BS-PUC-PucF-1,Baie de Seine,Puccinellie,Puccinellie feuille,,1,Puccinellia maritima,-27.194,8.994,
BS-PUC-PucF-2bis,Baie de Seine,Puccinellie,Puccinellie feuille,,2B,Puccinellia maritima,-26.9,9.003,
BS-PUC-PucF-2,Baie de Seine,Puccinellie,Puccinellie feuille,,2,Puccinellia maritima,-26.646,8.923,
BS-PUC-PucF-3,Baie de Seine,Puccinellie,Puccinellie feuille,,3,Puccinellia maritima,-26.501,9.453,
BM-OB-PucF-2,Baie du Mt St Michel,Obione,Puccinellie feuille,,2,Puccinellia maritima,-25.189,6.049,
BM-OB-PucF-3,Baie du Mt St Michel,Obione,Puccinellie feuille,,3,Puccinellia maritima,-25.188,6.312,
BM-CH-PucF-3,Baie du Mt St Michel,Chiendent,Puccinellie feuille,,3,Puccinellia maritima,-24.934,6.677,
BM-CH-PucF-2,Baie du Mt St Michel,Chiendent,Puccinellie feuille,,2,Puccinellia maritima,-24.573,7.054,
BM-PUC-PucF-3,Baie du Mt St Michel,Puccinellie,Puccinellie feuille,,3,Puccinellia maritima,-24.126,6.246,
BM-CH-PucF-1,Baie du Mt St Michel,Chiendent,Puccinellie feuille,,1,Puccinellia maritima,-24.096,7.495,
BM-PUC-PucF-1,Baie du Mt St Michel,Puccinellie,Puccinellie feuille,,1,Puccinellia maritima,-24.021,5.443,
BM-PUC-PucF-2,Baie du Mt St Michel,Puccinellie,Puccinellie feuille,,2,Puccinellia maritima,-23.824,5.593,
BM-OB-PucF-1,Baie du Mt St Michel,Obione,Puccinellie feuille,,1,Puccinellia maritima,-22.847,6.437,
BS-PUC-PucR-3,Baie de Seine,Puccinellie,Puccinellie racine,,3,Puccinellia maritima,-27.778,7.408,
BM-CH-PucR-2,Baie du Mt St Michel,Chiendent,Puccinellie racine,,2,Puccinellia maritima,-27.535,4.877,
BM-CH-PucR-1,Baie du Mt St Michel,Chiendent,Puccinellie racine,,1,Puccinellia maritima,-25.815,5.099,
BM-CH-PucR-3,Baie du Mt St Michel,Chiendent,Puccinellie racine,,3,Puccinellia maritima,-25.786,5.416,
BM-CH-PucR-1bis,Baie du Mt St Michel,Chiendent,Puccinellie racine,,1B,Puccinellia maritima,-25.591,5.279,
BS-PUC-PucR-2,Baie de Seine,Puccinellie,Puccinellie racine,,2,Puccinellia maritima,-23.534,8.402,
BS-PUC-PucR-1,Baie de Seine,Puccinellie,Puccinellie racine,,1,Puccinellia maritima,-23.395,8.191,
BS-PUC-SalF-1,Baie de Seine,Puccinellie,Salicorne feuille,,1,Salicornia maritima,-27.094,9.256,
BM-PUC-SalF-2,Baie du Mt St Michel,Puccinellie,Salicorne feuille,,2,Salicornia maritima,-26.784,6.679,
BM-PUC-SalF-3,Baie du Mt St Michel,Puccinellie,Salicorne feuille,,3,Salicornia maritima,-26.641,7.202,
BS-PUC-SalF-3,Baie de Seine,Puccinellie,Salicorne feuille,,3,Salicornia maritima,-26.476,9.476,
BS-PUC-SalF-3bis,Baie de Seine,Puccinellie,Salicorne feuille,,3B,Salicornia maritima,-26.466,9.14,
BS-PUC-SalF-2,Baie de Seine,Puccinellie,Salicorne feuille,,2,Salicornia maritima,-25.754,9.575,
BM-PUC-SalF-1,Baie du Mt St Michel,Puccinellie,Salicorne feuille,,1,Salicornia maritima,-25.482,7.166,
BS-PUC-SalR-1,Baie de Seine,Puccinellie,Salicorne racine,,1,Salicornia maritima,-28.852,6.736,
BS-PUC-SalR-3,Baie de Seine,Puccinellie,Salicorne racine,,3,Salicornia maritima,-27.773,6.681,
BS-PUC-SalR-2,Baie de Seine,Puccinellie,Salicorne racine,,2,Salicornia maritima,-27.331,7.318,
