spec,site,Meand13C,SDd13C,Meand15N,SDd15N,n
Carcinus maenas,BDM,-15.957222222222223,0.99945795031329,10.017666666666667,0.7004948251057957,9
Carcinus maenas,BDS,-16.947333333333333,0.42594256263804653,12.099333333333332,0.7032915943381285,6
Mysida,BDM,-15.81,0.40840361983538887,11.042833333333334,0.17843028517229517,6
Mysida,BDS,-18.40866666666667,0.562812461364056,12.167,0.26312430522473507,6
Orchestia gammarella,BDM,-23.431,0.8858920174979946,7.373428571428572,1.638461662367362,7
Orchestia gammarella,BDS,-23.2318,0.7039543309050664,10.6678,0.3737053652277425,5
Palaemonetes varians,BDM,-18.384444444444444,1.1266997283117526,10.863222222222221,0.8240360698685733,9
Palaemonetes varians,BDS,-19.511333333333333,0.41760731155795955,13.486,0.9858788972282545,6
